…
However, for searches with a large number of results, this may not be practical. In this case, or if you just don't know how many results to expect, you can request the next page of results.


```r
ulex_page1 <- search_powo("Ulex")
ulex_page2 <- request_next(ulex_page1)

bind_rows(
  tidy(ulex_page1),
  tidy(ulex_page2)
)
#> # A tibble: 100 x 11
#>    accepted author kingdom family name  rank  snippet url  
#>    <lgl>    <chr>  <chr>   <chr>  <chr> <chr> <chr>   <chr>
#>  1 TRUE     L.     Plantae Fabac~ Ulex  Genus " <b>G~ /tax~
#>  2 TRUE     Desf.  Plantae Caryo~ Aren~ Spec~ " <b>S~ /tax~
#>  3 FALSE    Webb   Plantae Fabac~ Ulex~ Spec~  <NA>   /tax~
#>  4 FALSE    Esp.S~ Plantae Fabac~ Ulex~ Spec~  <NA>   /tax~
#>  5 FALSE    Link ~ Plantae Fabac~ Ulex~ Spec~  <NA>   /tax~
#>  6 TRUE     Welw.~ Plantae Fabac~ Ulex~ Spec~  <NA>   /tax~
#>  7 FALSE    Mabil~ Plantae Fabac~ Ulex~ Spec~  <NA>   /tax~
#>  8 TRUE     Cleme~ Plantae Fabac~ Ulex~ Spec~  <NA>   /tax~
#>  9 FALSE    Thore  Plantae Fabac~ Ulex~ Spec~  <NA>   /tax~
#> 10 FALSE    Willk~ Plantae Fabac~ Ulex~ Spec~  <NA>   /tax~
#> # ... with 90 more rows, and 3 more variables: fqId <chr>,
#> #   images <list>, synonymOf <list>
```
…
