Look up a taxon in POWO. — lookup_powo • kewr
…
# format the returned list of children into a tibble
r <- lookup_wcvp("30000055-2")
formatted <- format(r)
tidyr::unnest(formatted, cols=children, names_sep="_")

#> # A tibble: 42 x 27
#>    id    link  name  display authors family genus specificEpithet
#>    <chr> <chr> <chr> <chr>   <chr>   <chr>  <chr> <chr>          
#>  1 3000… /tax… Camp… <b><i>… Ruiz &… Myrta… Camp… NA             
#>  2 3000… /tax… Camp… <b><i>… Ruiz &… Myrta… Camp… NA             
#>  3 3000… /tax… Camp… <b><i>… Ruiz &… Myrta… Camp… NA             
#>  4 3000… /tax… Camp… <b><i>… Ruiz &… Myrta… Camp… NA             
#>  5 3000… /tax… Camp… <b><i>… Ruiz &… Myrta… Camp… NA             
#>  6 3000… /tax… Camp… <b><i>… Ruiz &… Myrta… Camp… NA             
#>  7 3000… /tax… Camp… <b><i>… Ruiz &… Myrta… Camp… NA             
#>  8 3000… /tax… Camp… <b><i>… Ruiz &… Myrta… Camp… NA             
#>  9 3000… /tax… Camp… <b><i>… Ruiz &… Myrta… Camp… NA             
#> 10 3000… /tax… Camp… <b><i>… Ruiz &… Myrta… Camp… NA             
#> # … with 32 more rows, and 19 more variables: infraspecificEpithet <chr>,
#> #   rank <chr>, subordinateRank <chr>, status <chr>, publication <chr>,
#> #   reviewStatus <chr>, parent <chr>, accepted <chr>, synonyms <list>,
#> #   hierarchy <list>, children_id <chr>, children_fqId <chr>,
#> #   children_url <chr>, children_display <chr>, children_accepted <lgl>,
#> #   children_family <chr>, children_name <chr>, children_author <chr>,
#> #   children_rank <chr>
…
