Look up a taxon in WCVP. — lookup_wcvp • kewr
…
# expand the child entries returned for each entry
r <- lookup_wcvp("30000055-2")
tidied <- tidy(r)
tidyr::unnest(tidied, cols=children, names_sep="_")
#> # A tibble: 42 × 27
#>    id         link    name    display      authors family genus  specificEpithet
#>    <chr>      <chr>   <chr>   <chr>        <chr>   <chr>  <chr>  <lgl>          
#>  1 30000055-2 /taxon… Campom… <b><i>Campo… Ruiz &… Myrta… Campo… NA             
#>  2 30000055-2 /taxon… Campom… <b><i>Campo… Ruiz &… Myrta… Campo… NA             
#>  3 30000055-2 /taxon… Campom… <b><i>Campo… Ruiz &… Myrta… Campo… NA             
#>  4 30000055-2 /taxon… Campom… <b><i>Campo… Ruiz &… Myrta… Campo… NA             
#>  5 30000055-2 /taxon… Campom… <b><i>Campo… Ruiz &… Myrta… Campo… NA             
#>  6 30000055-2 /taxon… Campom… <b><i>Campo… Ruiz &… Myrta… Campo… NA             
#>  7 30000055-2 /taxon… Campom… <b><i>Campo… Ruiz &… Myrta… Campo… NA             
#>  8 30000055-2 /taxon… Campom… <b><i>Campo… Ruiz &… Myrta… Campo… NA             
#>  9 30000055-2 /taxon… Campom… <b><i>Campo… Ruiz &… Myrta… Campo… NA             
#> 10 30000055-2 /taxon… Campom… <b><i>Campo… Ruiz &… Myrta… Campo… NA             
#> # … with 32 more rows, and 19 more variables: infraspecificEpithet <lgl>,
#> #   rank <chr>, subordinateRank <chr>, status <chr>, publication <chr>,
#> #   reviewStatus <chr>, parent <lgl>, accepted <lgl>, synonyms <list>,
#> #   hierarchy <list>, children_id <chr>, children_fqId <chr>,
#> #   children_url <chr>, children_display <chr>, children_accepted <lgl>,
#> #   children_family <chr>, children_name <chr>, children_author <chr>,
#> #   children_rank <chr>
…
