Search IPNI. — search_ipni • kewr
…
# search for species from Mexico published in 1989
q <- list(published="1989", distribution="Mexico")
f <- "species"
results <- search_ipni(q, filters=f)
format(results)

#> # A tibble: 50 x 40
#>    name  authors publishingAuthor authorTeam rank  url   family genus species
#>    <chr> <chr>   <chr>            <list>     <chr> <chr> <chr>  <chr> <chr>  
#>  1 Abie… Rushfo… Rushforth & Nar… <tibble [… spec. /n/2… Pinac… Abies colime…
#>  2 Abie… Rushfo… Rushforth        <tibble [… spec. /n/2… Pinac… Abies flinck…
#>  3 Acou… L.Cabr… L.Cabrera        <tibble [… spec. /n/2… Aster… Acou… dierin…
#>  4 Aesc… Rudd    Rudd             <tibble [… spec. /n/2… Fabac… Aesc… lyonne…
#>  5 Agar… L.M.Go… L.M.González     <tibble [… spec. /n/2… Erica… Agar… villar…
#>  6 Ager… B.L.Tu… B.L.Turner       <tibble [… spec. /n/2… Aster… Ager… chazar…
#>  7 Ager… B.L.Tu… B.L.Turner       <tibble [… spec. /n/2… Aster… Ager… chimal…
#>  8 Ager… B.L.Tu… B.L.Turner       <tibble [… spec. /n/2… Aster… Ager… perezii
#>  9 Arce… (Hawks… Hawksw. & Wiens  <tibble [… spec. /n/2… Visca… Arce… durang…
#> 10 Arce… Hawksw… Hawksw. & Wiens  <tibble [… spec. /n/2… Visca… Arce… oaxaca…
#> # … with 40 more rows, and 31 more variables: collectionNumber <chr>,
#> #   collectorTeam <chr>, citationType <chr>, distribution <chr>, hybrid <lgl>,
#> #   hybridGenus <lgl>, inPowo <lgl>, linkedPublication <list>,
#> #   publication <chr>, publicationYear <int>, referenceCollation <chr>,
#> #   publicationId <chr>, recordType <chr>, reference <chr>, suppressed <lgl>,
#> #   topCopy <lgl>, typeLocations <chr>, version <chr>, id <chr>, fqId <chr>,
#> #   hasNomenclaturalNotes <lgl>, hasTypeData <lgl>, hasOriginalData <lgl>,
#> #   hasLinks <lgl>, bhlLink <chr>, typeNote <chr>, basionymAuthorStr <chr>,
#> #   publicationYearNote <chr>, remarks <chr>, referenceRemarks <chr>,
…
