Search Kew's Tree of Life for specimens or genes. — search_tol • kewr
…
# tidy the returned genes
tidy(r)

#> # A tibble: 353 × 16
#>    alignment_file_url       average_contig_l… average_contig_l… exemplar_access…
#>    <chr>                                <dbl>             <dbl> <chr>           
#>  1 http://sftp.kew.org/pub…              493.              86.3 Q8GWR1          
#>  2 http://sftp.kew.org/pub…              584.              51.7 Q8H1R4          
#>  3 http://sftp.kew.org/pub…              453.              55.2 Q8LEF6          
#>  4 http://sftp.kew.org/pub…              487.              55.1 Q9FZ49          
#>  5 http://sftp.kew.org/pub…              645.              60.8 P04747          
#>  6 http://sftp.kew.org/pub…              790.              68.4 Q9ZUC1          
#>  7 http://sftp.kew.org/pub…              641.              53.6 Q8VY89          
#>  8 http://sftp.kew.org/pub…              969.              65.2 Q9LRZ3          
#>  9 http://sftp.kew.org/pub…              344.              67.4 Q9FIG9          
#> 10 http://sftp.kew.org/pub…              612.              90.4 F4JUL9          
#> # … with 343 more rows, and 12 more variables: exemplar_hyperlink <chr>,
#> #   exemplar_name <chr>, exemplar_species <chr>, fasta_file_url <chr>,
#> #   genera_count <int>, id <int>, internal_name <chr>, newick_file <chr>,
#> #   newick_file_path_name <chr>, sequence_count <int>, species_count <int>,
#> #   tree_file_url <chr>
…
