Search POWO. — search_powo • kewr
…
# simplify search results to a `tibble`
r <- search_powo("Poa", filters=c("species"))
tidy(r)
#> # A tibble: 50 × 11
#>    accepted author  kingdom family  name   rank  snippet   synonymOf url   fqId 
#>    <lgl>    <chr>   <chr>   <chr>   <chr>  <chr> <chr>     <list>    <chr> <chr>
#>  1 FALSE    (Lam. … Plantae Poaceae Agrop… Spec… " <b>Spe… <tibble … /tax… urn:…
#>  2 FALSE    Nees e… Plantae Poaceae Briza… Spec… " <b>Spe… <tibble … /tax… urn:…
#>  3 FALSE    Stapf   Plantae Poaceae Eragr… Spec… " <b>Spe… <tibble … /tax… urn:…
#>  4 FALSE    (Lam. … Plantae Poaceae Festu… Spec… " <b>Spe… <tibble … /tax… urn:…
#>  5 FALSE    (Lam. … Plantae Poaceae Nardu… Spec… " <b>Spe… <tibble … /tax… urn:…
#>  6 FALSE    Lam. &… Plantae Poaceae Triti… Spec… " <b>Spe… <tibble … /tax… urn:…
#>  7 TRUE     (L.) W… Plantae Caprif… Valer… Spec… " <b>Gen… <NULL>    /tax… urn:…
#>  8 TRUE     L.      Plantae Primul… Andro… Spec… " <b>Gen… <NULL>    /tax… urn:…
#>  9 TRUE     R.Br.   Plantae Poaceae Poa a… Spec…  NA       <NULL>    /tax… urn:…
#> 10 FALSE    Schur   Plantae Poaceae Poa a… Spec…  NA       <tibble … /tax… urn:…
#> # … with 40 more rows, and 1 more variable: images <list>
…
