Search WCVP for a taxon. — search_wcvp • kewr
…
# simplify search results to a `tibble`
r <- search_wcvp("Poa", filters=c("species"))
tidy(r)
#> # A tibble: 50 × 10
#>    id         fqId   url    display accepted family name  author rank  synonymOf
#>    <chr>      <chr>  <chr>  <chr>   <lgl>    <chr>  <chr> <chr>  <chr> <list>   
#>  1 416409-1   urn:l… /taxo… <b><i>… TRUE     Poace… Poa … R.Br.  Spec… <NULL>   
#>  2 416411-1   urn:l… /taxo… <i>Poa… FALSE    Poace… Poa … Schur  Spec… <tibble …
#>  3 416412-1   urn:l… /taxo… <i>Poa… FALSE    Poace… Poa … R.Br.  Spec… <tibble …
#>  4 322592-2   urn:l… /taxo… <i>Poa… FALSE    Poace… Poa … Jacq.  Spec… <tibble …
#>  5 416414-1   urn:l… /taxo… <b><i>… TRUE     Poace… Poa … Bucha… Spec… <NULL>   
#>  6 416415-1   urn:l… /taxo… <i>Poa… FALSE    Poace… Poa … (Trin… Spec… <tibble …
#>  7 416416-1   urn:l… /taxo… <b><i>… TRUE     Poace… Poa … É.Des… Spec… <NULL>   
#>  8 70027705-1 urn:l… /taxo… <i>Poa… FALSE    Poace… Poa … Keng … Spec… <tibble …
#>  9 204059-2   urn:l… /taxo… <i>Poa… FALSE    Poace… Poa … Hack.  Spec… <tibble …
#> 10 416418-1   urn:l… /taxo… <b><i>… TRUE     Poace… Poa … Steud. Spec… <NULL>   
#> # … with 40 more rows

# accepted name info is nested inside the records for synonyms
# simplify accepted name info to the name ID
r <- search_wcvp("Poa", filters=c("species"))
tidied <- tidy(r)
tidyr::unnest(tidied, cols=synonymOf, names_sep="_")
#> # A tibble: 27 × 18
#>    id     fqId    url   display  accepted family name  author rank  synonymOf_id
#>    <chr>  <chr>   <chr> <chr>    <lgl>    <chr>  <chr> <chr>  <chr> <chr>       
#>  1 41641… urn:ls… /tax… <i>Poa … FALSE    Poace… Poa … Schur  Spec… 204398-2    
#>  2 41641… urn:ls… /tax… <i>Poa … FALSE    Poace… Poa … R.Br.  Spec… 404736-1    
#>  3 32259… urn:ls… /tax… <i>Poa … FALSE    Poace… Poa … Jacq.  Spec… 1105499-2   
#>  4 41641… urn:ls… /tax… <i>Poa … FALSE    Poace… Poa … (Trin… Spec… 322581-2    
#>  5 70027… urn:ls… /tax… <i>Poa … FALSE    Poace… Poa … Keng … Spec… 320039-2    
#>  6 20405… urn:ls… /tax… <i>Poa … FALSE    Poace… Poa … Hack.  Spec… 77091513-1  
#>  7 77107… urn:ls… /tax… <i>Poa … FALSE    Poace… Poa … (Olon… Spec… 416557-1    
#>  8 41642… urn:ls… /tax… <i>Poa … FALSE    Poace… Poa … Ovcz.  Spec… 417077-1    
#>  9 41642… urn:ls… /tax… <i>Poa … FALSE    Poace… Poa … Ovcz.… Spec… 416668-1    
#> 10 32257… urn:ls… /tax… <i>Poa … FALSE    Poace… Poa … Kunth  Spec… 1051970-2   
#> # … with 17 more rows, and 8 more variables: synonymOf_fqId <chr>,
#> #   synonymOf_url <chr>, synonymOf_display <chr>, synonymOf_accepted <lgl>,
#> #   synonymOf_family <chr>, synonymOf_name <chr>, synonymOf_author <chr>,
#> #   synonymOf_rank <chr>
…
