Building a species checklist • kewr
…
fcn <- function(id) {
  pb$tick()
  
  lookup_powo(id, distribution=TRUE)
}

iceland_records <- map(ids, fcn)

Now we have all the records for our species, we can tidy them as a data frame to make subsequent analysis a bit easier.

iceland_checklist <- map_dfr(iceland_records, tidy)
iceland_checklist
#> # A tibble: 864 × 28
#>    modified   bibliographicCitation  genus taxonomicStatus kingdom phylum family
#>    <chr>      <chr>                  <chr> <chr>           <chr>   <chr>  <chr> 
#>  1 2021-07-2… IPNI 2021. Published … Ante… Accepted        Plantae Magno… Aster…
#>  2 2021-07-2… IPNI 2021. Published … Hier… Accepted        Plantae Magno… Aster…
#>  3 2021-07-2… IPNI 2021. Published … Hier… Accepted        Plantae Magno… Aster…
#>  4 2021-07-2… IPNI 2021. Published … Hier… Accepted        Plantae Magno… Aster…
#>  5 2021-07-2… IPNI 2021. Published … Hier… Accepted        Plantae Magno… Aster…
#>  6 2021-07-2… IPNI 2021. Published … Hier… Accepted        Plantae Magno… Aster…
#>  7 2021-07-2… IPNI 2021. Published … Hier… Accepted        Plantae Magno… Aster…
#>  8 2021-07-2… IPNI 2021. Published … Hier… Accepted        Plantae Magno… Aster…
#>  9 2021-07-2… IPNI 2021. Published … Hier… Accepted        Plantae Magno… Aster…
#> 10 2021-07-2… IPNI 2021. Published … Hier… Accepted        Plantae Magno… Aster…
#> # … with 854 more rows, and 21 more variables: nomenclaturalCode <chr>,
#> #   source <chr>, namePublishedInYear <int>, taxonRemarks <chr>,
#> #   nomenclaturalStatus <chr>, synonym <lgl>, plantae <lgl>, fungi <lgl>,
#> #   fqId <chr>, name <chr>, authors <chr>, species <chr>, rank <chr>,
#> #   reference <chr>, classification <list>, distribution <list>,
#> #   distributionEnvelope <list>, synonyms <list>, basionym <list>,
#> #   childNameUsages <list>, basionymOf <list>
…
Now all we have to do is tidy up our data frame by removing any columns we don’t want anymore.

iceland_checklist <-
  iceland_checklist %>%
  select(fqId, name, authors, taxonomicStatus, plantae, fungi,
         kingdom, phylum, family, genus, species)

iceland_checklist
#> # A tibble: 782 × 11
#>    fqId  name  authors taxonomicStatus plantae fungi kingdom phylum family genus
#>    <chr> <chr> <chr>   <chr>           <lgl>   <lgl> <chr>   <chr>  <chr>  <chr>
#>  1 urn:… Ante… A.E.Po… Accepted        TRUE    FALSE Plantae Magno… Aster… Ante…
#>  2 urn:… Hier… Omang   Accepted        TRUE    FALSE Plantae Magno… Aster… Hier…
#>  3 urn:… Hier… Ósk.    Accepted        TRUE    FALSE Plantae Magno… Aster… Hier…
#>  4 urn:… Hier… (Dahls… Accepted        TRUE    FALSE Plantae Magno… Aster… Hier…
#>  5 urn:… Hier… Omang   Accepted        TRUE    FALSE Plantae Magno… Aster… Hier…
#>  6 urn:… Hier… Ósk.    Accepted        TRUE    FALSE Plantae Magno… Aster… Hier…
#>  7 urn:… Hier… Omang   Accepted        TRUE    FALSE Plantae Magno… Aster… Hier…
#>  8 urn:… Hier… Ósk.    Accepted        TRUE    FALSE Plantae Magno… Aster… Hier…
#>  9 urn:… Hier… Omang   Accepted        TRUE    FALSE Plantae Magno… Aster… Hier…
#> 10 urn:… Hier… <NA>    Accepted        TRUE    FALSE Plantae Magno… Aster… Hier…
#> # … with 772 more rows, and 1 more variable: species <chr>
…
