{"http_interactions":[{"request":{"method":"get","uri":"http://www.plantsoftheworldonline.org/api/2/search?q=Myrcia&perPage=50&f=species_f","body":{"encoding":"","string":""},"headers":{"Accept":"application/json, text/xml, application/xml, */*"}},"response":{"status":{"status_code":200,"category":"Success","reason":"OK","message":"Success: (200) OK"},"headers":{"server":"nginx/1.15.12","date":"Thu, 04 Mar 2021 11:08:31 GMT","content-type":"application/json;charset=UTF-8","transfer-encoding":"chunked","connection":"keep-alive","etag":"W/\"097b94b45886aa525b7c764be351e2818\"","content-encoding":"gzip"},"body":{"encoding":"UTF-8","file":false,"string":"{\"totalResults\":1152,\"page\":1,\"totalPages\":24,\"perPage\":50,\"cursor\":\"AoMIQNlfdzk2MDBNeXJ0YWNlYWVNeXJjaWFhbWJpZ3VhLFRheG9uXzEwNDM0OA==\",\"message\":\"If you would like to download and use the POWO data in a conciencious way, please use our official library pykew [https://github.com/RBGKew/pykew].\",\"results\":[{\"accepted\":true,\"author\":\"(D.Legrand) NicLugh.\",\"kingdom\":\"Plantae\",\"family\":\"Myrtaceae\",\"name\":\"Myrcia catharinensis\",\"rank\":\"Species\",\"snippet\":\" <b>General<\/b>: <em>Myrcia<\/em> catharinensis is recognised by its rather narrow<br/> <b>Flower<\/b>: <em>Myrcia<\/em> catharinensis flowers from January to March\",\"url\":\"/taxon/urn:lsid:ipni.org:names:77118654-1\",\"fqId\":\"urn:lsid:ipni.org:names:77118654-1\",\"images\":[{\"thumbnail\":\"http://d2seqvvyy3b8p2.cloudfront.net/27a7771331d9ad9c582bf2526601c9dd.jpg\",\"fullsize\":\"http://d2seqvvyy3b8p2.cloudfront.net/dffd32beaeaa23aed2a52ff9a0e666a3.jpg\",\"caption\":\"A specimen from Kew's Herbarium\"}]},{\"accepted\":true,\"author\":\"NicLugh.\",\"kingdom\":\"Plantae\",\"family\":\"Myrtaceae\",\"name\":\"Myrcia carvalhoi\",\"rank\":\"Species\",\"snippet\":\" <b>General<\/b>: <em>Myrcia<\/em> carvalhoi is clearly related to M. amplexicaulis<br/> <b>Flower<\/b>: We have seen only two flowering collections of <em>Myrcia<\/em>\",\"url\":\"/taxon/urn:lsid:ipni.org:names:77118652-1\",\"fqId\":\"urn:lsid:ipni.org:names:77118652-1\",\"images\":[{\"thumbnail\":\"http://d2seqvvyy3b8p2.cloudfront.net/89717d3c4b95de8c9afc958d9e65e227.jpg\",\"fullsize\":\"http://d2seqvvyy3b8p2.cloudfront.net/245062ea590ead885f6405eb6050541a.jpg\",\"caption\":\"A specimen from Kew's Herbarium\"}]},{\"accepted\":true,\"author\":\"NicLugh.\",\"kingdom\":\"Plantae\",\"family\":\"Myrtaceae\",\"name\":\"Myrcia rosangelae\",\"rank\":\"Species\",\"snippet\":\" <b>General<\/b>: <em>Myrcia<\/em> rosangelae has a distribution confined to north<br/> <b>Flower<\/b>: <em>Myrcia<\/em> rosangelae has been collected in flower in late\",\"url\":\"/taxon/urn:lsid:ipni.org:names:77118119-1\",\"fqId\":\"urn:lsid:ipni.org:names:77118119-1\",\"images\":[{\"thumbnail\":\"http://d2seqvvyy3b8p2.cloudfront.net/c7cc1b9035093ca64ba003e5bffd9e6a.jpg\",\"fullsize\":\"http://d2seqvvyy3b8p2.cloudfront.net/82491a2a26462db7e57fbeabe69a5bc9.jpg\",\"caption\":\"A specimen from Kew's Herbarium\"}]},{\"accepted\":true,\"author\":\"NicLugh.\",\"kingdom\":\"Plantae\",\"family\":\"Myrtaceae\",\"name\":\"Myrcia grazielae\",\"rank\":\"Species\",\"snippet\":\" <b>General<\/b>: <em>Myrcia<\/em> grazielae is endemic to the coastal forests of Bahia\",\"url\":\"/taxon/urn:lsid:ipni.org:names:77118653-1\",\"fqId\":\"urn:lsid:ipni.org:names:77118653-1\",\"images\":[{\"thumbnail\":\"http://d2seqvvyy3b8p2.cloudfront.net/b15e6cfc2510e147f670e0acbe997298.jpg\",\"fullsize\":\"http://d2seqvvyy3b8p2.cloudfront.net/adc4b76220e43d83c35d597e089013c8.jpg\",\"caption\":\"A specimen from Kew's Herbarium\"}]},{\"accepted\":true,\"author\":\"B.S.Amorim\",\"kingdom\":\"Plantae\",\"family\":\"Myrtaceae\",\"name\":\"Myrcia lughadhae\",\"rank\":\"Species\",\"snippet\":\" <b>General<\/b>: <em>Myrcia<\/em> lughadhai is morphologically related to M. crocea\",\"url\":\"/taxon/urn:lsid:ipni.org:names:77141649-1\",\"fqId\":\"urn:lsid:ipni.org:names:77141649-1\"},{\"accepted\":true,\"author\":\"NicLugh.\",\"kingdom\":\"Plantae\",\"family\":\"Myrtaceae\",\"name\":\"Myrcia curtipendula\",\"rank\":\"Species\",\"snippet\":\" <b>General<\/b>:  in <em>Myrcia<\/em> section Gomidesia and are particularly noteworthy. <em>Myrcia<\/em>\",\"url\":\"/taxon/urn:lsid:ipni.org:names:77104337-1\",\"fqId\":\"urn:lsid:ipni.org:names:77104337-1\",\"images\":[{\"thumbnail\":\"http://d2seqvvyy3b8p2.cloudfront.net/0f339fecceccc04e5c9273898693d56e.jpg\",\"fullsize\":\"http://d2seqvvyy3b8p2.cloudfront.net/0b6951aa913f09c3e501668ee7e7884c.jpg\",\"caption\":\"A specimen from Kew's Herbarium\"}]},{\"accepted\":true,\"author\":\"Villarroel & Proença\",\"kingdom\":\"Plantae\",\"family\":\"Myrtaceae\",\"name\":\"Myrcia lignosa\",\"rank\":\"Species\",\"snippet\":\" <b>General<\/b>: <em>Myrcia<\/em> lignosa is vegetatively very similar to M. pinifolia\",\"url\":\"/taxon/urn:lsid:ipni.org:names:77128347-1\",\"fqId\":\"urn:lsid:ipni.org:names:77128347-1\",\"images\":[{\"thumbnail\":\"http://d2seqvvyy3b8p2.cloudfront.net/b6c0352a84c1a2eed90a8eb97aa2ee0a.jpg\",\"fullsize\":\"http://d2seqvvyy3b8p2.cloudfront.net/408305b5f31f28107f39e8d711eb6f12.jpg\",\"caption\":\"A specimen from Kew's Herbarium\"}]},{\"accepted\":true,\"author\":\"NicLugh.\",\"kingdom\":\"Plantae\",\"family\":\"Myrtaceae\",\"name\":\"Myrcia aurea\",\"rank\":\"Species\",\"snippet\":\" <b>General<\/b>: <em>Myrcia<\/em> aurea is notable in having a dense indumentum\",\"url\":\"/taxon/urn:lsid:ipni.org:names:77104338-1\",\"fqId\":\"urn:lsid:ipni.org:names:77104338-1\",\"images\":[{\"thumbnail\":\"http://d2seqvvyy3b8p2.cloudfront.net/30da6a44c883ae5c5aa70387b0c59455.jpg\",\"fullsize\":\"http://d2seqvvyy3b8p2.cloudfront.net/3d18c89b51a6fa1a9e4490813ae08d5e.jpg\",\"caption\":\"A specimen from Kew's Herbarium\"}]},{\"accepted\":true,\"author\":\"NicLugh.\",\"kingdom\":\"Plantae\",\"family\":\"Myrtaceae\",\"name\":\"Myrcia teresensis\",\"rank\":\"Species\",\"snippet\":\" <b>General<\/b>: . velutiflora. <em>Myrcia<\/em> teresensis normally bears pairs of uniflorescences\",\"url\":\"/taxon/urn:lsid:ipni.org:names:77104339-1\",\"fqId\":\"urn:lsid:ipni.org:names:77104339-1\",\"images\":[{\"thumbnail\":\"http://d2seqvvyy3b8p2.cloudfront.net/a81a05438030a37e44d697d44a09f873.jpg\",\"fullsize\":\"http://d2seqvvyy3b8p2.cloudfront.net/0787e98b6e011d93828ac9779e0c522c.jpg\",\"caption\":\"A specimen from Kew's Herbarium\"}]},{\"accepted\":true,\"author\":\"(Urb.) Alain\",\"kingdom\":\"Plantae\",\"family\":\"Myrtaceae\",\"name\":\"Myrcia abbotiana\",\"rank\":\"Species\",\"url\":\"/taxon/urn:lsid:ipni.org:names:165525-2\",\"fqId\":\"urn:lsid:ipni.org:names:165525-2\"},{\"accepted\":true,\"author\":\"(O.Berg) E.Lucas & Sobral\",\"kingdom\":\"Plantae\",\"family\":\"Myrtaceae\",\"name\":\"Myrcia abrantea\",\"rank\":\"Species\",\"url\":\"/taxon/urn:lsid:ipni.org:names:77107082-1\",\"fqId\":\"urn:lsid:ipni.org:names:77107082-1\"},{\"accepted\":false,\"author\":\"Mattos\",\"kingdom\":\"Plantae\",\"family\":\"Myrtaceae\",\"name\":\"Myrcia accioliana\",\"rank\":\"Species\",\"synonymOf\":{\"accepted\":true,\"author\":\"(Nied.) E.Lucas & Sobral\",\"name\":\"Myrcia cerqueiria\",\"url\":\"/taxon/urn:lsid:ipni.org:names:77107083-1\",\"fqId\":\"urn:lsid:ipni.org:names:77097338-1\"},\"url\":\"/taxon/urn:lsid:ipni.org:names:77097338-1\",\"fqId\":\"urn:lsid:ipni.org:names:77097338-1\"},{\"accepted\":true,\"author\":\"(Alain) A.R.Lourenço & E.Lucas\",\"kingdom\":\"Plantae\",\"family\":\"Myrtaceae\",\"name\":\"Myrcia acevedoi\",\"rank\":\"Species\",\"url\":\"/taxon/urn:lsid:ipni.org:names:77191340-1\",\"fqId\":\"urn:lsid:ipni.org:names:77191340-1\"},{\"accepted\":false,\"author\":\"(Sw.) DC.\",\"kingdom\":\"Plantae\",\"family\":\"Myrtaceae\",\"name\":\"Myrcia acris\",\"rank\":\"Species\",\"synonymOf\":{\"accepted\":true,\"name\":\"Pimenta racemosa var. racemosa\",\"url\":\"/taxon/urn:lsid:ipni.org:names:196822-2\",\"fqId\":\"urn:lsid:ipni.org:names:598576-1\"},\"url\":\"/taxon/urn:lsid:ipni.org:names:598576-1\",\"fqId\":\"urn:lsid:ipni.org:names:598576-1\"},{\"accepted\":false,\"author\":\"(Kunth) DC.\",\"kingdom\":\"Plantae\",\"family\":\"Myrtaceae\",\"name\":\"Myrcia acuminata\",\"rank\":\"Species\",\"synonymOf\":{\"accepted\":true,\"author\":\"(Sw.) DC.\",\"name\":\"Myrcia splendens\",\"url\":\"/taxon/urn:lsid:ipni.org:names:599170-1\",\"fqId\":\"urn:lsid:ipni.org:names:598577-1\"},\"url\":\"/taxon/urn:lsid:ipni.org:names:598577-1\",\"fqId\":\"urn:lsid:ipni.org:names:598577-1\"},{\"accepted\":true,\"author\":\"Hieron.\",\"kingdom\":\"Plantae\",\"family\":\"Myrtaceae\",\"name\":\"Myrcia acuminatissima\",\"rank\":\"Species\",\"url\":\"/taxon/urn:lsid:ipni.org:names:598579-1\",\"fqId\":\"urn:lsid:ipni.org:names:598579-1\"},{\"accepted\":false,\"author\":\"O.Berg\",\"kingdom\":\"Plantae\",\"family\":\"Myrtaceae\",\"name\":\"Myrcia acuminatissima\",\"rank\":\"Species\",\"synonymOf\":{\"accepted\":true,\"author\":\"(O.Berg) Kiaersk.\",\"name\":\"Myrcia racemosa\",\"url\":\"/taxon/urn:lsid:ipni.org:names:165930-2\",\"fqId\":\"urn:lsid:ipni.org:names:598578-1\"},\"url\":\"/taxon/urn:lsid:ipni.org:names:598578-1\",\"fqId\":\"urn:lsid:ipni.org:names:598578-1\"},{\"accepted\":true,\"author\":\"Borhidi\",\"kingdom\":\"Plantae\",\"family\":\"Myrtaceae\",\"name\":\"Myrcia acunae\",\"rank\":\"Species\",\"url\":\"/taxon/urn:lsid:ipni.org:names:165530-2\",\"fqId\":\"urn:lsid:ipni.org:names:165530-2\"},{\"accepted\":false,\"author\":\"O.Berg\",\"kingdom\":\"Plantae\",\"family\":\"Myrtaceae\",\"name\":\"Myrcia acutata\",\"rank\":\"Species\",\"synonymOf\":{\"accepted\":true,\"author\":\"(Sw.) DC.\",\"name\":\"Myrcia splendens\",\"url\":\"/taxon/urn:lsid:ipni.org:names:599170-1\",\"fqId\":\"urn:lsid:ipni.org:names:598581-1\"},\"url\":\"/taxon/urn:lsid:ipni.org:names:598581-1\",\"fqId\":\"urn:lsid:ipni.org:names:598581-1\"},{\"accepted\":false,\"author\":\"O.Berg\",\"kingdom\":\"Plantae\",\"family\":\"Myrtaceae\",\"name\":\"Myrcia acutiloba\",\"rank\":\"Species\",\"synonymOf\":{\"accepted\":true,\"author\":\"(Sw.) DC.\",\"name\":\"Myrcia splendens\",\"url\":\"/taxon/urn:lsid:ipni.org:names:599170-1\",\"fqId\":\"urn:lsid:ipni.org:names:598582-1\"},\"url\":\"/taxon/urn:lsid:ipni.org:names:598582-1\",\"fqId\":\"urn:lsid:ipni.org:names:598582-1\"},{\"accepted\":true,\"author\":\"(Urb.) K.Campbell & K.Samra\",\"kingdom\":\"Plantae\",\"family\":\"Myrtaceae\",\"name\":\"Myrcia acutissima\",\"rank\":\"Species\",\"url\":\"/taxon/urn:lsid:ipni.org:names:77199392-1\",\"fqId\":\"urn:lsid:ipni.org:names:77199392-1\",\"images\":[{\"thumbnail\":\"http://d2seqvvyy3b8p2.cloudfront.net/0f8a58761154f4618a36b1bee84373e0.jpg\",\"fullsize\":\"http://d2seqvvyy3b8p2.cloudfront.net/48dd1fdb4975e68da7c171b2cdf3bf58.jpg\",\"caption\":\"A specimen from Kew's Herbarium\"}]},{\"accepted\":true,\"author\":\"A.R.Lourenço & E.Lucas\",\"kingdom\":\"Plantae\",\"family\":\"Myrtaceae\",\"name\":\"Myrcia adenophylla\",\"rank\":\"Species\",\"url\":\"/taxon/urn:lsid:ipni.org:names:77191341-1\",\"fqId\":\"urn:lsid:ipni.org:names:77191341-1\"},{\"accepted\":false,\"author\":\"Kiaersk.\",\"kingdom\":\"Plantae\",\"family\":\"Myrtaceae\",\"name\":\"Myrcia adpressepilosa\",\"rank\":\"Species\",\"synonymOf\":{\"accepted\":true,\"author\":\"(Aubl.) DC.\",\"name\":\"Myrcia guianensis\",\"url\":\"/taxon/urn:lsid:ipni.org:names:598851-1\",\"fqId\":\"urn:lsid:ipni.org:names:165531-2\"},\"url\":\"/taxon/urn:lsid:ipni.org:names:165531-2\",\"fqId\":\"urn:lsid:ipni.org:names:165531-2\"},{\"accepted\":true,\"author\":\"Z.Acosta & K.Samra\",\"kingdom\":\"Plantae\",\"family\":\"Myrtaceae\",\"name\":\"Myrcia adunca\",\"rank\":\"Species\",\"url\":\"/taxon/urn:lsid:ipni.org:names:77199393-1\",\"fqId\":\"urn:lsid:ipni.org:names:77199393-1\",\"images\":[{\"thumbnail\":\"http://d2seqvvyy3b8p2.cloudfront.net/b0f79274b8dd92756abdea5c9eaafa06.jpg\",\"fullsize\":\"http://d2seqvvyy3b8p2.cloudfront.net/2c01d12b062f10bad7aa3df4bb6a3ed5.jpg\",\"caption\":\"A specimen from Kew's Herbarium\"}]},{\"accepted\":true,\"author\":\"Mattos\",\"kingdom\":\"Plantae\",\"family\":\"Myrtaceae\",\"name\":\"Myrcia aegiphylloides\",\"rank\":\"Species\",\"url\":\"/taxon/urn:lsid:ipni.org:names:291326-2\",\"fqId\":\"urn:lsid:ipni.org:names:291326-2\"},{\"accepted\":true,\"author\":\"M.L.Kawas. & B.Holst\",\"kingdom\":\"Plantae\",\"family\":\"Myrtaceae\",\"name\":\"Myrcia aequatoriensis\",\"rank\":\"Species\",\"url\":\"/taxon/urn:lsid:ipni.org:names:77145565-1\",\"fqId\":\"urn:lsid:ipni.org:names:77145565-1\"},{\"accepted\":true,\"author\":\"Z.Acosta & K.Samra\",\"kingdom\":\"Plantae\",\"family\":\"Myrtaceae\",\"name\":\"Myrcia aerisea\",\"rank\":\"Species\",\"url\":\"/taxon/urn:lsid:ipni.org:names:77199394-1\",\"fqId\":\"urn:lsid:ipni.org:names:77199394-1\",\"images\":[{\"thumbnail\":\"http://d2seqvvyy3b8p2.cloudfront.net/b347e3ebc488db7d6847ce51bf9601b7.jpg\",\"fullsize\":\"http://d2seqvvyy3b8p2.cloudfront.net/157ee132d77070ea6d65d2b86ccbad0c.jpg\",\"caption\":\"A specimen from Kew's Herbarium\"}]},{\"accepted\":true,\"author\":\"(O.Berg) N.Silveira\",\"kingdom\":\"Plantae\",\"family\":\"Myrtaceae\",\"name\":\"Myrcia aethusa\",\"rank\":\"Species\",\"url\":\"/taxon/urn:lsid:ipni.org:names:961909-1\",\"fqId\":\"urn:lsid:ipni.org:names:961909-1\",\"images\":[{\"thumbnail\":\"http://d2seqvvyy3b8p2.cloudfront.net/253b87aa253590474dc0fe318b36132b.jpg\",\"fullsize\":\"http://d2seqvvyy3b8p2.cloudfront.net/ff213501e5902a53c4f33ab93c085a77.jpg\",\"caption\":\"A specimen from Kew's Herbarium\"},{\"thumbnail\":\"http://d2seqvvyy3b8p2.cloudfront.net/7350343074a378a037cf0f642c38d03a.jpg\",\"fullsize\":\"http://d2seqvvyy3b8p2.cloudfront.net/a452d871abdf7754447f6c2c64ced8d0.jpg\",\"caption\":\"A specimen from Kew's Herbarium\"},{\"thumbnail\":\"http://d2seqvvyy3b8p2.cloudfront.net/6a5bb2a300bd22ab104dcafab4b0c8ef.jpg\",\"fullsize\":\"http://d2seqvvyy3b8p2.cloudfront.net/c97b755739dab58cecd1866031807ba8.jpg\",\"caption\":\"A specimen from Kew's Herbarium\"}]},{\"accepted\":false,\"author\":\"Cambess.\",\"kingdom\":\"Plantae\",\"family\":\"Myrtaceae\",\"name\":\"Myrcia affinis\",\"rank\":\"Species\",\"synonymOf\":{\"accepted\":true,\"author\":\"DC.\",\"name\":\"Myrcia hebepetala\",\"url\":\"/taxon/urn:lsid:ipni.org:names:598858-1\",\"fqId\":\"urn:lsid:ipni.org:names:598585-1\"},\"url\":\"/taxon/urn:lsid:ipni.org:names:598585-1\",\"fqId\":\"urn:lsid:ipni.org:names:598585-1\"},{\"accepted\":false,\"author\":\"Gleason\",\"kingdom\":\"Plantae\",\"family\":\"Myrtaceae\",\"name\":\"Myrcia aguitensis\",\"rank\":\"Species\",\"synonymOf\":{\"accepted\":true,\"author\":\"(Sw.) DC.\",\"name\":\"Myrcia splendens\",\"url\":\"/taxon/urn:lsid:ipni.org:names:599170-1\",\"fqId\":\"urn:lsid:ipni.org:names:165533-2\"},\"url\":\"/taxon/urn:lsid:ipni.org:names:165533-2\",\"fqId\":\"urn:lsid:ipni.org:names:165533-2\"},{\"accepted\":false,\"author\":\"O.Berg\",\"kingdom\":\"Plantae\",\"family\":\"Myrtaceae\",\"name\":\"Myrcia alagoensis\",\"rank\":\"Species\",\"synonymOf\":{\"accepted\":true,\"author\":\"(Sw.) DC.\",\"name\":\"Myrcia splendens\",\"url\":\"/taxon/urn:lsid:ipni.org:names:599170-1\",\"fqId\":\"urn:lsid:ipni.org:names:598587-1\"},\"url\":\"/taxon/urn:lsid:ipni.org:names:598587-1\",\"fqId\":\"urn:lsid:ipni.org:names:598587-1\"},{\"accepted\":true,\"author\":\"Sobral & E.Lucas\",\"kingdom\":\"Plantae\",\"family\":\"Myrtaceae\",\"name\":\"Myrcia alatiramea\",\"rank\":\"Species\",\"url\":\"/taxon/urn:lsid:ipni.org:names:77149669-1\",\"fqId\":\"urn:lsid:ipni.org:names:77149669-1\",\"images\":[{\"thumbnail\":\"http://d2seqvvyy3b8p2.cloudfront.net/a8918da31fa06fc4ad8d01e44ed10f34.jpg\",\"fullsize\":\"http://d2seqvvyy3b8p2.cloudfront.net/0a8b735afe7ae8f1889cb220bbbf5a67.jpg\",\"caption\":\"Myrcia alatiramea Sobral &amp; E.Lucas\"},{\"thumbnail\":\"http://d2seqvvyy3b8p2.cloudfront.net/1276d7675a982fecabd746896a9c379b.jpg\",\"fullsize\":\"http://d2seqvvyy3b8p2.cloudfront.net/95ce47994582a66f3ff2207509eebc09.jpg\",\"caption\":\"Myrcia alatiramea Sobral &amp; E.Lucas\"},{\"thumbnail\":\"http://d2seqvvyy3b8p2.cloudfront.net/bc170ff13ade1dedbdd87512b82b52aa.jpg\",\"fullsize\":\"http://d2seqvvyy3b8p2.cloudfront.net/a51300edfc1ab18f1e16ec96b6f280e3.jpg\",\"caption\":\"Myrcia alatiramea Sobral &amp; E.Lucas\"}]},{\"accepted\":true,\"author\":\"(Alain) Alain\",\"kingdom\":\"Plantae\",\"family\":\"Myrtaceae\",\"name\":\"Myrcia albescens\",\"rank\":\"Species\",\"url\":\"/taxon/urn:lsid:ipni.org:names:165537-2\",\"fqId\":\"urn:lsid:ipni.org:names:165537-2\"},{\"accepted\":true,\"author\":\"(Borhidi) Z.Acosta & K.Samra\",\"kingdom\":\"Plantae\",\"family\":\"Myrtaceae\",\"name\":\"Myrcia albicans\",\"rank\":\"Species\",\"url\":\"/taxon/urn:lsid:ipni.org:names:77199395-1\",\"fqId\":\"urn:lsid:ipni.org:names:77199395-1\"},{\"accepted\":true,\"author\":\"(Amshoff) McVaugh\",\"kingdom\":\"Plantae\",\"family\":\"Myrtaceae\",\"name\":\"Myrcia albidotomentosa\",\"rank\":\"Species\",\"url\":\"/taxon/urn:lsid:ipni.org:names:165538-2\",\"fqId\":\"urn:lsid:ipni.org:names:165538-2\",\"images\":[{\"thumbnail\":\"http://d2seqvvyy3b8p2.cloudfront.net/3474f7e99ebfadd9b1828f70188dc8bc.jpg\",\"fullsize\":\"http://d2seqvvyy3b8p2.cloudfront.net/bfee5c4ac2383b12fe6c8bc71067d87e.jpg\",\"caption\":\"A specimen from Kew's Herbarium\"}]},{\"accepted\":true,\"author\":\"McVaugh\",\"kingdom\":\"Plantae\",\"family\":\"Myrtaceae\",\"name\":\"Myrcia albobrunnea\",\"rank\":\"Species\",\"url\":\"/taxon/urn:lsid:ipni.org:names:165539-2\",\"fqId\":\"urn:lsid:ipni.org:names:165539-2\"},{\"accepted\":true,\"author\":\"DC.\",\"kingdom\":\"Plantae\",\"family\":\"Myrtaceae\",\"name\":\"Myrcia albotomentosa\",\"rank\":\"Species\",\"url\":\"/taxon/urn:lsid:ipni.org:names:598591-1\",\"fqId\":\"urn:lsid:ipni.org:names:598591-1\"},{\"accepted\":true,\"author\":\"McVaugh\",\"kingdom\":\"Plantae\",\"family\":\"Myrtaceae\",\"name\":\"Myrcia aliena\",\"rank\":\"Species\",\"url\":\"/taxon/urn:lsid:ipni.org:names:291325-2\",\"fqId\":\"urn:lsid:ipni.org:names:291325-2\",\"images\":[{\"thumbnail\":\"http://d2seqvvyy3b8p2.cloudfront.net/df87bed83660559e06f34d5bc5282f2a.jpg\",\"fullsize\":\"http://d2seqvvyy3b8p2.cloudfront.net/0c94b904539d8e90474c003f57937582.jpg\",\"caption\":\"A specimen from Kew's Herbarium\"}]},{\"accepted\":false,\"author\":\"(O.Berg) Kiaersk.\",\"kingdom\":\"Plantae\",\"family\":\"Myrtaceae\",\"name\":\"Myrcia alloiota\",\"rank\":\"Species\",\"synonymOf\":{\"accepted\":true,\"author\":\"(Aubl.) DC.\",\"name\":\"Myrcia tomentosa\",\"url\":\"/taxon/urn:lsid:ipni.org:names:599215-1\",\"fqId\":\"urn:lsid:ipni.org:names:165542-2\"},\"url\":\"/taxon/urn:lsid:ipni.org:names:165542-2\",\"fqId\":\"urn:lsid:ipni.org:names:165542-2\"},{\"accepted\":true,\"author\":\"NicLugh.\",\"kingdom\":\"Plantae\",\"family\":\"Myrtaceae\",\"name\":\"Myrcia almasensis\",\"rank\":\"Species\",\"url\":\"/taxon/urn:lsid:ipni.org:names:304073-2\",\"fqId\":\"urn:lsid:ipni.org:names:304073-2\",\"images\":[{\"thumbnail\":\"http://d2seqvvyy3b8p2.cloudfront.net/089f104b7de72cdda4a89491073d3bfc.jpg\",\"fullsize\":\"http://d2seqvvyy3b8p2.cloudfront.net/bb8d36e9f189bbe2fb253d017b4d7a2b.jpg\",\"caption\":\"A specimen from Kew's Herbarium\"}]},{\"accepted\":false,\"author\":\"Barb.Rodr.\",\"kingdom\":\"Plantae\",\"family\":\"Myrtaceae\",\"name\":\"Myrcia alpestris\",\"rank\":\"Species\",\"synonymOf\":{\"accepted\":true,\"author\":\"Cambess.\",\"name\":\"Myrcia anomala\",\"url\":\"/taxon/urn:lsid:ipni.org:names:598611-1\",\"fqId\":\"urn:lsid:ipni.org:names:165544-2\"},\"url\":\"/taxon/urn:lsid:ipni.org:names:165544-2\",\"fqId\":\"urn:lsid:ipni.org:names:165544-2\"},{\"accepted\":false,\"author\":\"Kiaersk.\",\"kingdom\":\"Plantae\",\"family\":\"Myrtaceae\",\"name\":\"Myrcia alpina\",\"rank\":\"Species\",\"synonymOf\":{\"accepted\":true,\"author\":\"DC.\",\"name\":\"Myrcia eriocalyx\",\"url\":\"/taxon/urn:lsid:ipni.org:names:598785-1\",\"fqId\":\"urn:lsid:ipni.org:names:165545-2\"},\"url\":\"/taxon/urn:lsid:ipni.org:names:165545-2\",\"fqId\":\"urn:lsid:ipni.org:names:165545-2\"},{\"accepted\":true,\"author\":\"Sobral\",\"kingdom\":\"Plantae\",\"family\":\"Myrtaceae\",\"name\":\"Myrcia altera\",\"rank\":\"Species\",\"url\":\"/taxon/urn:lsid:ipni.org:names:77162360-1\",\"fqId\":\"urn:lsid:ipni.org:names:77162360-1\",\"images\":[{\"thumbnail\":\"http://d2seqvvyy3b8p2.cloudfront.net/a74f513aba5ec57a33516bb8644cb455.jpg\",\"fullsize\":\"http://d2seqvvyy3b8p2.cloudfront.net/c1525e1aaffd4a78a231e4cf1b6fe97e.jpg\",\"caption\":\"A specimen from Kew's Herbarium\"}]},{\"accepted\":false,\"author\":\"Miq.\",\"kingdom\":\"Plantae\",\"family\":\"Myrtaceae\",\"name\":\"Myrcia alternifolia\",\"rank\":\"Species\",\"synonymOf\":{\"accepted\":true,\"author\":\"(Aubl.) DC.\",\"name\":\"Myrcia guianensis\",\"url\":\"/taxon/urn:lsid:ipni.org:names:598851-1\",\"fqId\":\"urn:lsid:ipni.org:names:598596-1\"},\"url\":\"/taxon/urn:lsid:ipni.org:names:598596-1\",\"fqId\":\"urn:lsid:ipni.org:names:598596-1\"},{\"accepted\":true,\"author\":\"Sobral & Zorzan.\",\"kingdom\":\"Plantae\",\"family\":\"Myrtaceae\",\"name\":\"Myrcia altomontana\",\"rank\":\"Species\",\"url\":\"/taxon/urn:lsid:ipni.org:names:77163078-1\",\"fqId\":\"urn:lsid:ipni.org:names:77163078-1\"},{\"accepted\":true,\"author\":\"Sobral & M.A.D.Souza\",\"kingdom\":\"Plantae\",\"family\":\"Myrtaceae\",\"name\":\"Myrcia amanana\",\"rank\":\"Species\",\"url\":\"/taxon/urn:lsid:ipni.org:names:77163007-1\",\"fqId\":\"urn:lsid:ipni.org:names:77163007-1\"},{\"accepted\":true,\"author\":\"McVaugh\",\"kingdom\":\"Plantae\",\"family\":\"Myrtaceae\",\"name\":\"Myrcia amapensis\",\"rank\":\"Species\",\"url\":\"/taxon/urn:lsid:ipni.org:names:165546-2\",\"fqId\":\"urn:lsid:ipni.org:names:165546-2\"},{\"accepted\":true,\"author\":\"(B.Holst) A.R.Lourenço & Sánchez-Cháv.\",\"kingdom\":\"Plantae\",\"family\":\"Myrtaceae\",\"name\":\"Myrcia amarulenta\",\"rank\":\"Species\",\"url\":\"/taxon/urn:lsid:ipni.org:names:77191342-1\",\"fqId\":\"urn:lsid:ipni.org:names:77191342-1\"},{\"accepted\":true,\"author\":\"DC.\",\"kingdom\":\"Plantae\",\"family\":\"Myrtaceae\",\"name\":\"Myrcia amazonica\",\"rank\":\"Species\",\"url\":\"/taxon/urn:lsid:ipni.org:names:598598-1\",\"fqId\":\"urn:lsid:ipni.org:names:598598-1\",\"images\":[{\"thumbnail\":\"http://d2seqvvyy3b8p2.cloudfront.net/c79838e20234238cc5cc48b62e850f16.jpg\",\"fullsize\":\"http://d2seqvvyy3b8p2.cloudfront.net/795f92f6efd17b7b2311e1438ef204cd.jpg\",\"caption\":\"Myrcia amazonica DC.\"},{\"thumbnail\":\"http://d2seqvvyy3b8p2.cloudfront.net/cdaf4be62090b0d49fe1bb33502fa945.jpg\",\"fullsize\":\"http://d2seqvvyy3b8p2.cloudfront.net/1e79365e8f31d6a6715ee8baff21c636.jpg\",\"caption\":\"Myrcia cf. amazonica DC.\"},{\"thumbnail\":\"http://d2seqvvyy3b8p2.cloudfront.net/ab3e69a388e76deb3bb03f417cd02a16.jpg\",\"fullsize\":\"http://d2seqvvyy3b8p2.cloudfront.net/45c4c7bb813af1934d85c81db474b8a8.jpg\",\"caption\":\"Myrcia cf. amazonica DC.\"}]},{\"accepted\":false,\"author\":\"DC.\",\"kingdom\":\"Plantae\",\"family\":\"Myrtaceae\",\"name\":\"Myrcia ambigua\",\"rank\":\"Species\",\"synonymOf\":{\"accepted\":true,\"author\":\"(G.Mey.) DC.\",\"name\":\"Myrcia sylvatica\",\"url\":\"/taxon/urn:lsid:ipni.org:names:599199-1\",\"fqId\":\"urn:lsid:ipni.org:names:598599-1\"},\"url\":\"/taxon/urn:lsid:ipni.org:names:598599-1\",\"fqId\":\"urn:lsid:ipni.org:names:598599-1\"}]}"}},"recorded_at":"2021-03-04 11:08:31 GMT","recorded_with":"vcr/0.6.0, webmockr/0.7.4"}]}
