{"http_interactions":[{"request":{"method":"get","uri":"http://www.plantsoftheworldonline.org/api/2/search?q=Myrcia&perPage=50&f=accepted_names","body":{"encoding":"","string":""},"headers":{"Accept":"application/json, text/xml, application/xml, */*"}},"response":{"status":{"status_code":200,"category":"Success","reason":"OK","message":"Success: (200) OK"},"headers":{"server":"nginx/1.15.12","date":"Thu, 04 Mar 2021 11:08:31 GMT","content-type":"application/json;charset=UTF-8","transfer-encoding":"chunked","connection":"keep-alive","etag":"W/\"08a010b996c0f91e55b81140ee13cd3a6\"","content-encoding":"gzip"},"body":{"encoding":"UTF-8","file":false,"string":"{\"totalResults\":752,\"page\":1,\"totalPages\":16,\"perPage\":50,\"cursor\":\"AoMIQNlfdzk2MDBNeXJ0YWNlYWVNeXJjaWFhcGljYXRhLFRheG9uXzQ1MjkzNw==\",\"message\":\"If you would like to download and use the POWO data in a conciencious way, please use our official library pykew [https://github.com/RBGKew/pykew].\",\"results\":[{\"accepted\":true,\"author\":\"(D.Legrand) NicLugh.\",\"kingdom\":\"Plantae\",\"family\":\"Myrtaceae\",\"name\":\"Myrcia catharinensis\",\"rank\":\"Species\",\"snippet\":\" <b>General<\/b>: <em>Myrcia<\/em> catharinensis is recognised by its rather narrow<br/> <b>Flower<\/b>: <em>Myrcia<\/em> catharinensis flowers from January to March\",\"url\":\"/taxon/urn:lsid:ipni.org:names:77118654-1\",\"fqId\":\"urn:lsid:ipni.org:names:77118654-1\",\"images\":[{\"thumbnail\":\"http://d2seqvvyy3b8p2.cloudfront.net/27a7771331d9ad9c582bf2526601c9dd.jpg\",\"fullsize\":\"http://d2seqvvyy3b8p2.cloudfront.net/dffd32beaeaa23aed2a52ff9a0e666a3.jpg\",\"caption\":\"A specimen from Kew's Herbarium\"}]},{\"accepted\":true,\"author\":\"NicLugh.\",\"kingdom\":\"Plantae\",\"family\":\"Myrtaceae\",\"name\":\"Myrcia carvalhoi\",\"rank\":\"Species\",\"snippet\":\" <b>General<\/b>: <em>Myrcia<\/em> carvalhoi is clearly related to M. amplexicaulis<br/> <b>Flower<\/b>: We have seen only two flowering collections of <em>Myrcia<\/em>\",\"url\":\"/taxon/urn:lsid:ipni.org:names:77118652-1\",\"fqId\":\"urn:lsid:ipni.org:names:77118652-1\",\"images\":[{\"thumbnail\":\"http://d2seqvvyy3b8p2.cloudfront.net/89717d3c4b95de8c9afc958d9e65e227.jpg\",\"fullsize\":\"http://d2seqvvyy3b8p2.cloudfront.net/245062ea590ead885f6405eb6050541a.jpg\",\"caption\":\"A specimen from Kew's Herbarium\"}]},{\"accepted\":true,\"author\":\"NicLugh.\",\"kingdom\":\"Plantae\",\"family\":\"Myrtaceae\",\"name\":\"Myrcia rosangelae\",\"rank\":\"Species\",\"snippet\":\" <b>General<\/b>: <em>Myrcia<\/em> rosangelae has a distribution confined to north<br/> <b>Flower<\/b>: <em>Myrcia<\/em> rosangelae has been collected in flower in late\",\"url\":\"/taxon/urn:lsid:ipni.org:names:77118119-1\",\"fqId\":\"urn:lsid:ipni.org:names:77118119-1\",\"images\":[{\"thumbnail\":\"http://d2seqvvyy3b8p2.cloudfront.net/c7cc1b9035093ca64ba003e5bffd9e6a.jpg\",\"fullsize\":\"http://d2seqvvyy3b8p2.cloudfront.net/82491a2a26462db7e57fbeabe69a5bc9.jpg\",\"caption\":\"A specimen from Kew's Herbarium\"}]},{\"accepted\":true,\"author\":\"DC. ex Guill.\",\"kingdom\":\"Plantae\",\"family\":\"Myrtaceae\",\"name\":\"Myrcia\",\"rank\":\"Genus\",\"url\":\"/taxon/urn:lsid:ipni.org:names:30001220-2\",\"fqId\":\"urn:lsid:ipni.org:names:30001220-2\",\"images\":[{\"thumbnail\":\"http://storage.googleapis.com/powop-assets/neotropikey/myrcia_sp_wm_thumbnail.jpg\",\"fullsize\":\"http://storage.googleapis.com/powop-assets/neotropikey/myrcia_sp_wm_fullsize.jpg\",\"caption\":\"Myrcia (Myrtaceae)\"},{\"thumbnail\":\"http://d2seqvvyy3b8p2.cloudfront.net/cca5aaeda6685c23b9507f12f4d30cb0.jpg\",\"fullsize\":\"http://d2seqvvyy3b8p2.cloudfront.net/4ab3c9eda3eba692e192e9fd2c63904c.jpg\",\"caption\":\"Myrcia sp.\"},{\"thumbnail\":\"http://d2seqvvyy3b8p2.cloudfront.net/f873a1ffe13de040f1cd3b530dddbbe9.jpg\",\"fullsize\":\"http://d2seqvvyy3b8p2.cloudfront.net/902d6ba0f7ab3cfcb59985db00266039.jpg\",\"caption\":\"Myrcia sp.\"}]},{\"accepted\":true,\"author\":\"NicLugh.\",\"kingdom\":\"Plantae\",\"family\":\"Myrtaceae\",\"name\":\"Myrcia grazielae\",\"rank\":\"Species\",\"snippet\":\" <b>General<\/b>: <em>Myrcia<\/em> grazielae is endemic to the coastal forests of Bahia\",\"url\":\"/taxon/urn:lsid:ipni.org:names:77118653-1\",\"fqId\":\"urn:lsid:ipni.org:names:77118653-1\",\"images\":[{\"thumbnail\":\"http://d2seqvvyy3b8p2.cloudfront.net/b15e6cfc2510e147f670e0acbe997298.jpg\",\"fullsize\":\"http://d2seqvvyy3b8p2.cloudfront.net/adc4b76220e43d83c35d597e089013c8.jpg\",\"caption\":\"A specimen from Kew's Herbarium\"}]},{\"accepted\":true,\"author\":\"B.S.Amorim\",\"kingdom\":\"Plantae\",\"family\":\"Myrtaceae\",\"name\":\"Myrcia lughadhae\",\"rank\":\"Species\",\"snippet\":\" <b>General<\/b>: <em>Myrcia<\/em> lughadhai is morphologically related to M. crocea\",\"url\":\"/taxon/urn:lsid:ipni.org:names:77141649-1\",\"fqId\":\"urn:lsid:ipni.org:names:77141649-1\"},{\"accepted\":true,\"author\":\"NicLugh.\",\"kingdom\":\"Plantae\",\"family\":\"Myrtaceae\",\"name\":\"Myrcia curtipendula\",\"rank\":\"Species\",\"snippet\":\" <b>General<\/b>:  in <em>Myrcia<\/em> section Gomidesia and are particularly noteworthy. <em>Myrcia<\/em>\",\"url\":\"/taxon/urn:lsid:ipni.org:names:77104337-1\",\"fqId\":\"urn:lsid:ipni.org:names:77104337-1\",\"images\":[{\"thumbnail\":\"http://d2seqvvyy3b8p2.cloudfront.net/0f339fecceccc04e5c9273898693d56e.jpg\",\"fullsize\":\"http://d2seqvvyy3b8p2.cloudfront.net/0b6951aa913f09c3e501668ee7e7884c.jpg\",\"caption\":\"A specimen from Kew's Herbarium\"}]},{\"accepted\":true,\"author\":\"Villarroel & Proença\",\"kingdom\":\"Plantae\",\"family\":\"Myrtaceae\",\"name\":\"Myrcia lignosa\",\"rank\":\"Species\",\"snippet\":\" <b>General<\/b>: <em>Myrcia<\/em> lignosa is vegetatively very similar to M. pinifolia\",\"url\":\"/taxon/urn:lsid:ipni.org:names:77128347-1\",\"fqId\":\"urn:lsid:ipni.org:names:77128347-1\",\"images\":[{\"thumbnail\":\"http://d2seqvvyy3b8p2.cloudfront.net/b6c0352a84c1a2eed90a8eb97aa2ee0a.jpg\",\"fullsize\":\"http://d2seqvvyy3b8p2.cloudfront.net/408305b5f31f28107f39e8d711eb6f12.jpg\",\"caption\":\"A specimen from Kew's Herbarium\"}]},{\"accepted\":true,\"author\":\"NicLugh.\",\"kingdom\":\"Plantae\",\"family\":\"Myrtaceae\",\"name\":\"Myrcia aurea\",\"rank\":\"Species\",\"snippet\":\" <b>General<\/b>: <em>Myrcia<\/em> aurea is notable in having a dense indumentum\",\"url\":\"/taxon/urn:lsid:ipni.org:names:77104338-1\",\"fqId\":\"urn:lsid:ipni.org:names:77104338-1\",\"images\":[{\"thumbnail\":\"http://d2seqvvyy3b8p2.cloudfront.net/30da6a44c883ae5c5aa70387b0c59455.jpg\",\"fullsize\":\"http://d2seqvvyy3b8p2.cloudfront.net/3d18c89b51a6fa1a9e4490813ae08d5e.jpg\",\"caption\":\"A specimen from Kew's Herbarium\"}]},{\"accepted\":true,\"author\":\"NicLugh.\",\"kingdom\":\"Plantae\",\"family\":\"Myrtaceae\",\"name\":\"Myrcia teresensis\",\"rank\":\"Species\",\"snippet\":\" <b>General<\/b>: . velutiflora. <em>Myrcia<\/em> teresensis normally bears pairs of uniflorescences\",\"url\":\"/taxon/urn:lsid:ipni.org:names:77104339-1\",\"fqId\":\"urn:lsid:ipni.org:names:77104339-1\",\"images\":[{\"thumbnail\":\"http://d2seqvvyy3b8p2.cloudfront.net/a81a05438030a37e44d697d44a09f873.jpg\",\"fullsize\":\"http://d2seqvvyy3b8p2.cloudfront.net/0787e98b6e011d93828ac9779e0c522c.jpg\",\"caption\":\"A specimen from Kew's Herbarium\"}]},{\"accepted\":true,\"author\":\"(Urb.) Alain\",\"kingdom\":\"Plantae\",\"family\":\"Myrtaceae\",\"name\":\"Myrcia abbotiana\",\"rank\":\"Species\",\"url\":\"/taxon/urn:lsid:ipni.org:names:165525-2\",\"fqId\":\"urn:lsid:ipni.org:names:165525-2\"},{\"accepted\":true,\"author\":\"(O.Berg) E.Lucas & Sobral\",\"kingdom\":\"Plantae\",\"family\":\"Myrtaceae\",\"name\":\"Myrcia abrantea\",\"rank\":\"Species\",\"url\":\"/taxon/urn:lsid:ipni.org:names:77107082-1\",\"fqId\":\"urn:lsid:ipni.org:names:77107082-1\"},{\"accepted\":true,\"author\":\"(Alain) A.R.Lourenço & E.Lucas\",\"kingdom\":\"Plantae\",\"family\":\"Myrtaceae\",\"name\":\"Myrcia acevedoi\",\"rank\":\"Species\",\"url\":\"/taxon/urn:lsid:ipni.org:names:77191340-1\",\"fqId\":\"urn:lsid:ipni.org:names:77191340-1\"},{\"accepted\":true,\"author\":\"Borhidi\",\"kingdom\":\"Plantae\",\"family\":\"Myrtaceae\",\"name\":\"Myrcia acunae\",\"rank\":\"Species\",\"url\":\"/taxon/urn:lsid:ipni.org:names:165530-2\",\"fqId\":\"urn:lsid:ipni.org:names:165530-2\"},{\"accepted\":true,\"author\":\"(Urb.) K.Campbell & K.Samra\",\"kingdom\":\"Plantae\",\"family\":\"Myrtaceae\",\"name\":\"Myrcia acutissima\",\"rank\":\"Species\",\"url\":\"/taxon/urn:lsid:ipni.org:names:77199392-1\",\"fqId\":\"urn:lsid:ipni.org:names:77199392-1\",\"images\":[{\"thumbnail\":\"http://d2seqvvyy3b8p2.cloudfront.net/0f8a58761154f4618a36b1bee84373e0.jpg\",\"fullsize\":\"http://d2seqvvyy3b8p2.cloudfront.net/48dd1fdb4975e68da7c171b2cdf3bf58.jpg\",\"caption\":\"A specimen from Kew's Herbarium\"}]},{\"accepted\":true,\"author\":\"A.R.Lourenço & E.Lucas\",\"kingdom\":\"Plantae\",\"family\":\"Myrtaceae\",\"name\":\"Myrcia adenophylla\",\"rank\":\"Species\",\"url\":\"/taxon/urn:lsid:ipni.org:names:77191341-1\",\"fqId\":\"urn:lsid:ipni.org:names:77191341-1\"},{\"accepted\":true,\"author\":\"Z.Acosta & K.Samra\",\"kingdom\":\"Plantae\",\"family\":\"Myrtaceae\",\"name\":\"Myrcia adunca\",\"rank\":\"Species\",\"url\":\"/taxon/urn:lsid:ipni.org:names:77199393-1\",\"fqId\":\"urn:lsid:ipni.org:names:77199393-1\",\"images\":[{\"thumbnail\":\"http://d2seqvvyy3b8p2.cloudfront.net/b0f79274b8dd92756abdea5c9eaafa06.jpg\",\"fullsize\":\"http://d2seqvvyy3b8p2.cloudfront.net/2c01d12b062f10bad7aa3df4bb6a3ed5.jpg\",\"caption\":\"A specimen from Kew's Herbarium\"}]},{\"accepted\":true,\"author\":\"Mattos\",\"kingdom\":\"Plantae\",\"family\":\"Myrtaceae\",\"name\":\"Myrcia aegiphylloides\",\"rank\":\"Species\",\"url\":\"/taxon/urn:lsid:ipni.org:names:291326-2\",\"fqId\":\"urn:lsid:ipni.org:names:291326-2\"},{\"accepted\":true,\"author\":\"M.L.Kawas. & B.Holst\",\"kingdom\":\"Plantae\",\"family\":\"Myrtaceae\",\"name\":\"Myrcia aequatoriensis\",\"rank\":\"Species\",\"url\":\"/taxon/urn:lsid:ipni.org:names:77145565-1\",\"fqId\":\"urn:lsid:ipni.org:names:77145565-1\"},{\"accepted\":true,\"author\":\"Z.Acosta & K.Samra\",\"kingdom\":\"Plantae\",\"family\":\"Myrtaceae\",\"name\":\"Myrcia aerisea\",\"rank\":\"Species\",\"url\":\"/taxon/urn:lsid:ipni.org:names:77199394-1\",\"fqId\":\"urn:lsid:ipni.org:names:77199394-1\",\"images\":[{\"thumbnail\":\"http://d2seqvvyy3b8p2.cloudfront.net/b347e3ebc488db7d6847ce51bf9601b7.jpg\",\"fullsize\":\"http://d2seqvvyy3b8p2.cloudfront.net/157ee132d77070ea6d65d2b86ccbad0c.jpg\",\"caption\":\"A specimen from Kew's Herbarium\"}]},{\"accepted\":true,\"author\":\"(O.Berg) N.Silveira\",\"kingdom\":\"Plantae\",\"family\":\"Myrtaceae\",\"name\":\"Myrcia aethusa\",\"rank\":\"Species\",\"url\":\"/taxon/urn:lsid:ipni.org:names:961909-1\",\"fqId\":\"urn:lsid:ipni.org:names:961909-1\",\"images\":[{\"thumbnail\":\"http://d2seqvvyy3b8p2.cloudfront.net/253b87aa253590474dc0fe318b36132b.jpg\",\"fullsize\":\"http://d2seqvvyy3b8p2.cloudfront.net/ff213501e5902a53c4f33ab93c085a77.jpg\",\"caption\":\"A specimen from Kew's Herbarium\"},{\"thumbnail\":\"http://d2seqvvyy3b8p2.cloudfront.net/7350343074a378a037cf0f642c38d03a.jpg\",\"fullsize\":\"http://d2seqvvyy3b8p2.cloudfront.net/a452d871abdf7754447f6c2c64ced8d0.jpg\",\"caption\":\"A specimen from Kew's Herbarium\"},{\"thumbnail\":\"http://d2seqvvyy3b8p2.cloudfront.net/6a5bb2a300bd22ab104dcafab4b0c8ef.jpg\",\"fullsize\":\"http://d2seqvvyy3b8p2.cloudfront.net/c97b755739dab58cecd1866031807ba8.jpg\",\"caption\":\"A specimen from Kew's Herbarium\"}]},{\"accepted\":true,\"author\":\"Sobral & E.Lucas\",\"kingdom\":\"Plantae\",\"family\":\"Myrtaceae\",\"name\":\"Myrcia alatiramea\",\"rank\":\"Species\",\"url\":\"/taxon/urn:lsid:ipni.org:names:77149669-1\",\"fqId\":\"urn:lsid:ipni.org:names:77149669-1\",\"images\":[{\"thumbnail\":\"http://d2seqvvyy3b8p2.cloudfront.net/a8918da31fa06fc4ad8d01e44ed10f34.jpg\",\"fullsize\":\"http://d2seqvvyy3b8p2.cloudfront.net/0a8b735afe7ae8f1889cb220bbbf5a67.jpg\",\"caption\":\"Myrcia alatiramea Sobral &amp; E.Lucas\"},{\"thumbnail\":\"http://d2seqvvyy3b8p2.cloudfront.net/1276d7675a982fecabd746896a9c379b.jpg\",\"fullsize\":\"http://d2seqvvyy3b8p2.cloudfront.net/95ce47994582a66f3ff2207509eebc09.jpg\",\"caption\":\"Myrcia alatiramea Sobral &amp; E.Lucas\"},{\"thumbnail\":\"http://d2seqvvyy3b8p2.cloudfront.net/bc170ff13ade1dedbdd87512b82b52aa.jpg\",\"fullsize\":\"http://d2seqvvyy3b8p2.cloudfront.net/a51300edfc1ab18f1e16ec96b6f280e3.jpg\",\"caption\":\"Myrcia alatiramea Sobral &amp; E.Lucas\"}]},{\"accepted\":true,\"author\":\"(Alain) Alain\",\"kingdom\":\"Plantae\",\"family\":\"Myrtaceae\",\"name\":\"Myrcia albescens\",\"rank\":\"Species\",\"url\":\"/taxon/urn:lsid:ipni.org:names:165537-2\",\"fqId\":\"urn:lsid:ipni.org:names:165537-2\"},{\"accepted\":true,\"author\":\"(Borhidi) Z.Acosta & K.Samra\",\"kingdom\":\"Plantae\",\"family\":\"Myrtaceae\",\"name\":\"Myrcia albicans\",\"rank\":\"Species\",\"url\":\"/taxon/urn:lsid:ipni.org:names:77199395-1\",\"fqId\":\"urn:lsid:ipni.org:names:77199395-1\"},{\"accepted\":true,\"author\":\"(Amshoff) McVaugh\",\"kingdom\":\"Plantae\",\"family\":\"Myrtaceae\",\"name\":\"Myrcia albidotomentosa\",\"rank\":\"Species\",\"url\":\"/taxon/urn:lsid:ipni.org:names:165538-2\",\"fqId\":\"urn:lsid:ipni.org:names:165538-2\",\"images\":[{\"thumbnail\":\"http://d2seqvvyy3b8p2.cloudfront.net/3474f7e99ebfadd9b1828f70188dc8bc.jpg\",\"fullsize\":\"http://d2seqvvyy3b8p2.cloudfront.net/bfee5c4ac2383b12fe6c8bc71067d87e.jpg\",\"caption\":\"A specimen from Kew's Herbarium\"}]},{\"accepted\":true,\"author\":\"McVaugh\",\"kingdom\":\"Plantae\",\"family\":\"Myrtaceae\",\"name\":\"Myrcia albobrunnea\",\"rank\":\"Species\",\"url\":\"/taxon/urn:lsid:ipni.org:names:165539-2\",\"fqId\":\"urn:lsid:ipni.org:names:165539-2\"},{\"accepted\":true,\"author\":\"DC.\",\"kingdom\":\"Plantae\",\"family\":\"Myrtaceae\",\"name\":\"Myrcia albotomentosa\",\"rank\":\"Species\",\"url\":\"/taxon/urn:lsid:ipni.org:names:598591-1\",\"fqId\":\"urn:lsid:ipni.org:names:598591-1\"},{\"accepted\":true,\"author\":\"McVaugh\",\"kingdom\":\"Plantae\",\"family\":\"Myrtaceae\",\"name\":\"Myrcia aliena\",\"rank\":\"Species\",\"url\":\"/taxon/urn:lsid:ipni.org:names:291325-2\",\"fqId\":\"urn:lsid:ipni.org:names:291325-2\",\"images\":[{\"thumbnail\":\"http://d2seqvvyy3b8p2.cloudfront.net/df87bed83660559e06f34d5bc5282f2a.jpg\",\"fullsize\":\"http://d2seqvvyy3b8p2.cloudfront.net/0c94b904539d8e90474c003f57937582.jpg\",\"caption\":\"A specimen from Kew's Herbarium\"}]},{\"accepted\":true,\"author\":\"NicLugh.\",\"kingdom\":\"Plantae\",\"family\":\"Myrtaceae\",\"name\":\"Myrcia almasensis\",\"rank\":\"Species\",\"url\":\"/taxon/urn:lsid:ipni.org:names:304073-2\",\"fqId\":\"urn:lsid:ipni.org:names:304073-2\",\"images\":[{\"thumbnail\":\"http://d2seqvvyy3b8p2.cloudfront.net/089f104b7de72cdda4a89491073d3bfc.jpg\",\"fullsize\":\"http://d2seqvvyy3b8p2.cloudfront.net/bb8d36e9f189bbe2fb253d017b4d7a2b.jpg\",\"caption\":\"A specimen from Kew's Herbarium\"}]},{\"accepted\":true,\"author\":\"Sobral\",\"kingdom\":\"Plantae\",\"family\":\"Myrtaceae\",\"name\":\"Myrcia altera\",\"rank\":\"Species\",\"url\":\"/taxon/urn:lsid:ipni.org:names:77162360-1\",\"fqId\":\"urn:lsid:ipni.org:names:77162360-1\",\"images\":[{\"thumbnail\":\"http://d2seqvvyy3b8p2.cloudfront.net/a74f513aba5ec57a33516bb8644cb455.jpg\",\"fullsize\":\"http://d2seqvvyy3b8p2.cloudfront.net/c1525e1aaffd4a78a231e4cf1b6fe97e.jpg\",\"caption\":\"A specimen from Kew's Herbarium\"}]},{\"accepted\":true,\"author\":\"Sobral & Zorzan.\",\"kingdom\":\"Plantae\",\"family\":\"Myrtaceae\",\"name\":\"Myrcia altomontana\",\"rank\":\"Species\",\"url\":\"/taxon/urn:lsid:ipni.org:names:77163078-1\",\"fqId\":\"urn:lsid:ipni.org:names:77163078-1\"},{\"accepted\":true,\"author\":\"Sobral & M.A.D.Souza\",\"kingdom\":\"Plantae\",\"family\":\"Myrtaceae\",\"name\":\"Myrcia amanana\",\"rank\":\"Species\",\"url\":\"/taxon/urn:lsid:ipni.org:names:77163007-1\",\"fqId\":\"urn:lsid:ipni.org:names:77163007-1\"},{\"accepted\":true,\"author\":\"McVaugh\",\"kingdom\":\"Plantae\",\"family\":\"Myrtaceae\",\"name\":\"Myrcia amapensis\",\"rank\":\"Species\",\"url\":\"/taxon/urn:lsid:ipni.org:names:165546-2\",\"fqId\":\"urn:lsid:ipni.org:names:165546-2\"},{\"accepted\":true,\"author\":\"(B.Holst) A.R.Lourenço & Sánchez-Cháv.\",\"kingdom\":\"Plantae\",\"family\":\"Myrtaceae\",\"name\":\"Myrcia amarulenta\",\"rank\":\"Species\",\"url\":\"/taxon/urn:lsid:ipni.org:names:77191342-1\",\"fqId\":\"urn:lsid:ipni.org:names:77191342-1\"},{\"accepted\":true,\"author\":\"DC.\",\"kingdom\":\"Plantae\",\"family\":\"Myrtaceae\",\"name\":\"Myrcia amazonica\",\"rank\":\"Species\",\"url\":\"/taxon/urn:lsid:ipni.org:names:598598-1\",\"fqId\":\"urn:lsid:ipni.org:names:598598-1\",\"images\":[{\"thumbnail\":\"http://d2seqvvyy3b8p2.cloudfront.net/c79838e20234238cc5cc48b62e850f16.jpg\",\"fullsize\":\"http://d2seqvvyy3b8p2.cloudfront.net/795f92f6efd17b7b2311e1438ef204cd.jpg\",\"caption\":\"Myrcia amazonica DC.\"},{\"thumbnail\":\"http://d2seqvvyy3b8p2.cloudfront.net/cdaf4be62090b0d49fe1bb33502fa945.jpg\",\"fullsize\":\"http://d2seqvvyy3b8p2.cloudfront.net/1e79365e8f31d6a6715ee8baff21c636.jpg\",\"caption\":\"Myrcia cf. amazonica DC.\"},{\"thumbnail\":\"http://d2seqvvyy3b8p2.cloudfront.net/ab3e69a388e76deb3bb03f417cd02a16.jpg\",\"fullsize\":\"http://d2seqvvyy3b8p2.cloudfront.net/45c4c7bb813af1934d85c81db474b8a8.jpg\",\"caption\":\"Myrcia cf. amazonica DC.\"}]},{\"accepted\":true,\"author\":\"McVaugh\",\"kingdom\":\"Plantae\",\"family\":\"Myrtaceae\",\"name\":\"Myrcia ambivalens\",\"rank\":\"Species\",\"url\":\"/taxon/urn:lsid:ipni.org:names:165553-2\",\"fqId\":\"urn:lsid:ipni.org:names:165553-2\"},{\"accepted\":true,\"author\":\"(Pilg.) A.R.Lourenço & E.Lucas\",\"kingdom\":\"Plantae\",\"family\":\"Myrtaceae\",\"name\":\"Myrcia amoena\",\"rank\":\"Species\",\"url\":\"/taxon/urn:lsid:ipni.org:names:77191350-1\",\"fqId\":\"urn:lsid:ipni.org:names:77191350-1\"},{\"accepted\":true,\"author\":\"(O.Berg) Hook.f.\",\"kingdom\":\"Plantae\",\"family\":\"Myrtaceae\",\"name\":\"Myrcia amplexicaulis\",\"rank\":\"Species\",\"url\":\"/taxon/urn:lsid:ipni.org:names:598603-1\",\"fqId\":\"urn:lsid:ipni.org:names:598603-1\",\"images\":[{\"thumbnail\":\"http://d2seqvvyy3b8p2.cloudfront.net/450ec4fbee213e0d18eee5d6e8d1c4fe.jpg\",\"fullsize\":\"http://d2seqvvyy3b8p2.cloudfront.net/52a0d82e26db496388d9ad56653a3db3.jpg\",\"caption\":\"A specimen from Kew's Herbarium\"}]},{\"accepted\":true,\"author\":\"(M.L.Kawas.) A.R.Lourenço & E.Lucas\",\"kingdom\":\"Plantae\",\"family\":\"Myrtaceae\",\"name\":\"Myrcia ampliflora\",\"rank\":\"Species\",\"url\":\"/taxon/urn:lsid:ipni.org:names:77191351-1\",\"fqId\":\"urn:lsid:ipni.org:names:77191351-1\",\"images\":[{\"thumbnail\":\"http://d2seqvvyy3b8p2.cloudfront.net/2ad02cfa0a0ad2bb7434166ec9fe4ff8.jpg\",\"fullsize\":\"http://d2seqvvyy3b8p2.cloudfront.net/31446b7e7c69c1f62505a540b8289102.jpg\",\"caption\":\"A specimen from Kew's Herbarium\"}]},{\"accepted\":true,\"author\":\"(McVaugh) A.R.Lourenço & E.Lucas\",\"kingdom\":\"Plantae\",\"family\":\"Myrtaceae\",\"name\":\"Myrcia amshoffae\",\"rank\":\"Species\",\"url\":\"/taxon/urn:lsid:ipni.org:names:77191352-1\",\"fqId\":\"urn:lsid:ipni.org:names:77191352-1\",\"images\":[{\"thumbnail\":\"http://d2seqvvyy3b8p2.cloudfront.net/42205c5d8977d4ef5f711c5e6b543614.jpg\",\"fullsize\":\"http://d2seqvvyy3b8p2.cloudfront.net/18502fbd8524cdca6a43dcc060090e1e.jpg\",\"caption\":\"A specimen from Kew's Herbarium\"}]},{\"accepted\":true,\"author\":\"Gardner\",\"kingdom\":\"Plantae\",\"family\":\"Myrtaceae\",\"name\":\"Myrcia anacardiifolia\",\"rank\":\"Species\",\"url\":\"/taxon/urn:lsid:ipni.org:names:598604-1\",\"fqId\":\"urn:lsid:ipni.org:names:598604-1\",\"images\":[{\"thumbnail\":\"http://d2seqvvyy3b8p2.cloudfront.net/41b40b689b1253f12c6460e36029974b.jpg\",\"fullsize\":\"http://d2seqvvyy3b8p2.cloudfront.net/a6ecccedb7e3235f437b40280543c3ae.jpg\",\"caption\":\"A specimen from Kew's Herbarium\"},{\"thumbnail\":\"http://d2seqvvyy3b8p2.cloudfront.net/d7de686b6b919427d6414f2116196a97.jpg\",\"fullsize\":\"http://d2seqvvyy3b8p2.cloudfront.net/f439a8ec0877a4553b33f8dc6b57cd24.jpg\",\"caption\":\"A specimen from Kew's Herbarium\"}]},{\"accepted\":true,\"author\":\"(Borhidi & O.Muñiz) Z.Acosta & K.Samra\",\"kingdom\":\"Plantae\",\"family\":\"Myrtaceae\",\"name\":\"Myrcia anacletoi\",\"rank\":\"Species\",\"url\":\"/taxon/urn:lsid:ipni.org:names:77199396-1\",\"fqId\":\"urn:lsid:ipni.org:names:77199396-1\"},{\"accepted\":true,\"author\":\"(Spreng.) O.Berg\",\"kingdom\":\"Plantae\",\"family\":\"Myrtaceae\",\"name\":\"Myrcia anceps\",\"rank\":\"Species\",\"url\":\"/taxon/urn:lsid:ipni.org:names:598605-1\",\"fqId\":\"urn:lsid:ipni.org:names:598605-1\",\"images\":[{\"thumbnail\":\"http://d2seqvvyy3b8p2.cloudfront.net/757c4c2c63707633cfb4b985f12c74b2.jpg\",\"fullsize\":\"http://d2seqvvyy3b8p2.cloudfront.net/513f444de6979808a9dad63f43550f15.jpg\",\"caption\":\"A specimen from Kew's Herbarium\"},{\"thumbnail\":\"http://d2seqvvyy3b8p2.cloudfront.net/729ba5eee679725d4e7767f4dc33bf3a.jpg\",\"fullsize\":\"http://d2seqvvyy3b8p2.cloudfront.net/5f91ee8e706b6301c7bbb207cfb1004e.jpg\",\"caption\":\"A specimen from Kew's Herbarium\"}]},{\"accepted\":true,\"author\":\"(Sobral & Ibrahim) A.R.Lourenço & E.Lucas\",\"kingdom\":\"Plantae\",\"family\":\"Myrtaceae\",\"name\":\"Myrcia anguerana\",\"rank\":\"Species\",\"url\":\"/taxon/urn:lsid:ipni.org:names:77191353-1\",\"fqId\":\"urn:lsid:ipni.org:names:77191353-1\"},{\"accepted\":true,\"author\":\"G.Don\",\"kingdom\":\"Plantae\",\"family\":\"Myrtaceae\",\"name\":\"Myrcia angusta\",\"rank\":\"Species\",\"url\":\"/taxon/urn:lsid:ipni.org:names:598608-1\",\"fqId\":\"urn:lsid:ipni.org:names:598608-1\"},{\"accepted\":true,\"author\":\"Cambess.\",\"kingdom\":\"Plantae\",\"family\":\"Myrtaceae\",\"name\":\"Myrcia anomala\",\"rank\":\"Species\",\"url\":\"/taxon/urn:lsid:ipni.org:names:598611-1\",\"fqId\":\"urn:lsid:ipni.org:names:598611-1\",\"images\":[{\"thumbnail\":\"http://d2seqvvyy3b8p2.cloudfront.net/af265a78c95f96646577eca0767bfaa9.jpg\",\"fullsize\":\"http://d2seqvvyy3b8p2.cloudfront.net/fe7e041fa9494cc91355664f1d1e8508.jpg\",\"caption\":\"A specimen from Kew's Herbarium\"}]},{\"accepted\":true,\"author\":\"McVaugh\",\"kingdom\":\"Plantae\",\"family\":\"Myrtaceae\",\"name\":\"Myrcia antillana\",\"rank\":\"Species\",\"url\":\"/taxon/urn:lsid:ipni.org:names:291324-2\",\"fqId\":\"urn:lsid:ipni.org:names:291324-2\",\"images\":[{\"thumbnail\":\"http://d2seqvvyy3b8p2.cloudfront.net/4d93940dff5d41f982977f950a78bd86.jpg\",\"fullsize\":\"http://d2seqvvyy3b8p2.cloudfront.net/ee078d1d1ed25b0bf1ea9aa19e5ff84c.jpg\",\"caption\":\"A specimen from Kew's Herbarium\"}]},{\"accepted\":true,\"author\":\"Parra-Os.\",\"kingdom\":\"Plantae\",\"family\":\"Myrtaceae\",\"name\":\"Myrcia antioquensis\",\"rank\":\"Species\",\"url\":\"/taxon/urn:lsid:ipni.org:names:77155420-1\",\"fqId\":\"urn:lsid:ipni.org:names:77155420-1\"},{\"accepted\":true,\"author\":\"(O.Berg) Mazine\",\"kingdom\":\"Plantae\",\"family\":\"Myrtaceae\",\"name\":\"Myrcia antonia\",\"rank\":\"Species\",\"url\":\"/taxon/urn:lsid:ipni.org:names:77141800-1\",\"fqId\":\"urn:lsid:ipni.org:names:77141800-1\",\"images\":[{\"thumbnail\":\"http://d2seqvvyy3b8p2.cloudfront.net/08e80fa439e63939fc299361f8751ccd.jpg\",\"fullsize\":\"http://d2seqvvyy3b8p2.cloudfront.net/55df1b58b06d3bd1a2fd22c5b9fbf8f2.jpg\",\"caption\":\"A specimen from Kew's Herbarium\"}]},{\"accepted\":true,\"author\":\"(C.Wright ex Griseb.) Z.Acosta & K.Samra\",\"kingdom\":\"Plantae\",\"family\":\"Myrtaceae\",\"name\":\"Myrcia apicata\",\"rank\":\"Species\",\"url\":\"/taxon/urn:lsid:ipni.org:names:77199397-1\",\"fqId\":\"urn:lsid:ipni.org:names:77199397-1\"}]}"}},"recorded_at":"2021-03-04 11:08:31 GMT","recorded_with":"vcr/0.6.0, webmockr/0.7.4"}]}
