{"http_interactions":[{"request":{"method":"get","uri":"http://www.plantsoftheworldonline.org/api/2/search","body":{"encoding":"","string":""},"headers":{"Accept":"application/json, text/xml, application/xml, */*"}},"response":{"status":{"status_code":200,"category":"Success","reason":"OK","message":"Success: (200) OK"},"headers":{"server":"nginx/1.15.12","date":"Thu, 04 Mar 2021 11:08:30 GMT","content-type":"application/json;charset=UTF-8","transfer-encoding":"chunked","connection":"keep-alive","etag":"W/\"0e3013cf8f15633adcf1a83cf820c811e\"","content-encoding":"gzip"},"body":{"encoding":"UTF-8","file":false,"string":"{\"totalResults\":1191369,\"page\":1,\"totalPages\":49641,\"perPage\":24,\"cursor\":\"AoMIP4AAAC8zMjVBbXBlbGlkYWNlYWUoVGF4b25fMjU=\",\"message\":\"If you would like to download and use the POWO data in a conciencious way, please use our official library pykew [https://github.com/RBGKew/pykew].\",\"results\":[{\"accepted\":true,\"author\":\"Juss.\",\"kingdom\":\"Plantae\",\"family\":\"Acanthaceae\",\"name\":\"Acanthaceae\",\"rank\":\"Family\",\"url\":\"/taxon/urn:lsid:ipni.org:names:30000618-2\",\"fqId\":\"urn:lsid:ipni.org:names:30000618-2\",\"images\":[{\"thumbnail\":\"http://d2seqvvyy3b8p2.cloudfront.net/bc30ed52191c0e2d4675f3a2464ac9ee.jpg\",\"fullsize\":\"http://d2seqvvyy3b8p2.cloudfront.net/98c68878d9e2290dc54552e851a0b091.jpg\",\"caption\":\"Acanthaceae Juss.\"},{\"thumbnail\":\"http://d2seqvvyy3b8p2.cloudfront.net/71b97cd982c023a158bc79c11eaef072.jpg\",\"fullsize\":\"http://d2seqvvyy3b8p2.cloudfront.net/d797201a7316ed81751c639024fb8672.jpg\",\"caption\":\"Acanthaceae Juss.\"},{\"thumbnail\":\"http://d2seqvvyy3b8p2.cloudfront.net/f0f47f2210c4977897c06e750a0ab556.jpg\",\"fullsize\":\"http://d2seqvvyy3b8p2.cloudfront.net/a2bb6c7e67bd5b222f588d395f1a97e2.jpg\",\"caption\":\"Acanthaceae Juss.\"}]},{\"accepted\":true,\"author\":\"Harms\",\"kingdom\":\"Plantae\",\"family\":\"Achariaceae\",\"name\":\"Achariaceae\",\"rank\":\"Family\",\"url\":\"/taxon/urn:lsid:ipni.org:names:77126656-1\",\"fqId\":\"urn:lsid:ipni.org:names:77126656-1\",\"images\":[{\"thumbnail\":\"http://storage.googleapis.com/powop-assets/kew_profiles/KPPCONT_032652_thumbnail.jpg\",\"fullsize\":\"http://storage.googleapis.com/powop-assets/kew_profiles/KPPCONT_032652_fullsize.jpg\",\"caption\":\"Caloncoba welwitschii\"},{\"thumbnail\":\"http://storage.googleapis.com/powop-assets/malesiankey/photo/4_37_thumbnail.jpg\",\"fullsize\":\"http://storage.googleapis.com/powop-assets/malesiankey/photo/4_37_fullsize.jpg\",\"caption\":\"Hydnocarpus sp (Flacourtiaceae)\"},{\"thumbnail\":\"http://storage.googleapis.com/powop-assets/malesiankey/photo/4_38_thumbnail.jpg\",\"fullsize\":\"http://storage.googleapis.com/powop-assets/malesiankey/photo/4_38_fullsize.jpg\",\"caption\":\"Hydnocarpus sp (Flacourtiaceae)\"}]},{\"accepted\":true,\"author\":\"Heimerl\",\"kingdom\":\"Plantae\",\"family\":\"Achatocarpaceae\",\"name\":\"Achatocarpaceae\",\"rank\":\"Family\",\"url\":\"/taxon/urn:lsid:ipni.org:names:77126689-1\",\"fqId\":\"urn:lsid:ipni.org:names:77126689-1\",\"images\":[{\"thumbnail\":\"http://storage.googleapis.com/powop-assets/neotropikey/WilliamIMG_1392_thumbnail.jpg\",\"fullsize\":\"http://storage.googleapis.com/powop-assets/neotropikey/WilliamIMG_1392_fullsize.jpg\",\"caption\":\"Achatocarpus (Achatocarpaceae)\"},{\"thumbnail\":\"http://d2seqvvyy3b8p2.cloudfront.net/952c45c8f933bf1857b193999140a0b9.jpg\",\"fullsize\":\"http://d2seqvvyy3b8p2.cloudfront.net/007ca5c9bb6136f8ebd03b8a5f04ea04.jpg\",\"caption\":\"Achatocarpus gracilis\"},{\"thumbnail\":\"http://d2seqvvyy3b8p2.cloudfront.net/3957e5601e0ee0a598812861d03ae90b.jpg\",\"fullsize\":\"http://d2seqvvyy3b8p2.cloudfront.net/6212915e4d58255d1dbe5cf4d447fa4f.jpg\",\"caption\":\"Achatocarpus gracilis\"}]},{\"accepted\":true,\"author\":\"Martinov\",\"kingdom\":\"Plantae\",\"family\":\"Acoraceae\",\"name\":\"Acoraceae\",\"rank\":\"Family\",\"url\":\"/taxon/urn:lsid:ipni.org:names:77126753-1\",\"fqId\":\"urn:lsid:ipni.org:names:77126753-1\",\"images\":[{\"thumbnail\":\"http://d2seqvvyy3b8p2.cloudfront.net/8eab9ebc8c76fa914ad64919950457cb.jpg\",\"fullsize\":\"http://d2seqvvyy3b8p2.cloudfront.net/92fba079f99c6669c7864ffc142523b7.jpg\",\"caption\":\"Acorus calamus\"},{\"thumbnail\":\"http://d2seqvvyy3b8p2.cloudfront.net/85474f6b079d77e3ca7783de5d5b0738.jpg\",\"fullsize\":\"http://d2seqvvyy3b8p2.cloudfront.net/c88fba762043d754f5687028b31be5e7.jpg\",\"caption\":\"Acorus gramineus 'Oborozuki'\"},{\"thumbnail\":\"http://d2seqvvyy3b8p2.cloudfront.net/1e974471ebb8516737ca810f63cbfd0e.jpg\",\"fullsize\":\"http://d2seqvvyy3b8p2.cloudfront.net/abcf235e66e1fe7f67549069c1e97436.jpg\",\"caption\":\"Acorus calamus\"}]},{\"accepted\":true,\"author\":\"Engl. & Gilg\",\"kingdom\":\"Plantae\",\"family\":\"Actinidiaceae\",\"name\":\"Actinidiaceae\",\"rank\":\"Family\",\"url\":\"/taxon/urn:lsid:ipni.org:names:30005518-2\",\"fqId\":\"urn:lsid:ipni.org:names:30005518-2\",\"images\":[{\"thumbnail\":\"http://storage.googleapis.com/powop-assets/kew_profiles/KPPCONT_038326_thumbnail.jpg\",\"fullsize\":\"http://storage.googleapis.com/powop-assets/kew_profiles/KPPCONT_038326_fullsize.jpg\",\"caption\":\"Actinidia kolomikta (kolomikta vine)\"},{\"thumbnail\":\"http://storage.googleapis.com/powop-assets/kew_profiles/Actinidia_deliciosa_056_Fr%20(Main)_thumbnail.jpg\",\"fullsize\":\"http://storage.googleapis.com/powop-assets/kew_profiles/Actinidia_deliciosa_056_Fr%20(Main)_fullsize.jpg\",\"caption\":\"Actinidia deliciosa (kiwi fruit)\"},{\"thumbnail\":\"http://storage.googleapis.com/powop-assets/malesiankey/photo/319-017_thumbnail.jpg\",\"fullsize\":\"http://storage.googleapis.com/powop-assets/malesiankey/photo/319-017_fullsize.jpg\",\"caption\":\"Saurauia sp (Actinidiaceae)\"}]},{\"accepted\":false,\"author\":\"Pic.Serm.\",\"kingdom\":\"Plantae\",\"family\":\"Actiniopteridaceae\",\"name\":\"Actiniopteridaceae\",\"rank\":\"Family\",\"synonymOf\":{\"accepted\":true,\"author\":\"E.D.M.Kirchn.\",\"name\":\"Pteridaceae\",\"url\":\"/taxon/urn:lsid:ipni.org:names:30001654-2\",\"fqId\":\"urn:lsid:ipni.org:names:17425750-1\"},\"url\":\"/taxon/urn:lsid:ipni.org:names:17425750-1\",\"fqId\":\"urn:lsid:ipni.org:names:17425750-1\"},{\"accepted\":false,\"author\":\"Newman\",\"kingdom\":\"Plantae\",\"family\":\"Adiantaceae\",\"name\":\"Adiantaceae\",\"rank\":\"Family\",\"synonymOf\":{\"accepted\":true,\"author\":\"E.D.M.Kirchn.\",\"name\":\"Pteridaceae\",\"url\":\"/taxon/urn:lsid:ipni.org:names:30001654-2\",\"fqId\":\"urn:lsid:ipni.org:names:30004421-2\"},\"url\":\"/taxon/urn:lsid:ipni.org:names:30004421-2\",\"fqId\":\"urn:lsid:ipni.org:names:30004421-2\"},{\"accepted\":false,\"author\":\"E.Mey.\",\"kingdom\":\"Plantae\",\"family\":\"Adoxaceae\",\"name\":\"Adoxaceae\",\"rank\":\"Family\",\"synonymOf\":{\"accepted\":true,\"author\":\"Raf.\",\"name\":\"Viburnaceae\",\"url\":\"/taxon/urn:lsid:ipni.org:names:77162522-1\",\"fqId\":\"urn:lsid:ipni.org:names:77126666-1\"},\"url\":\"/taxon/urn:lsid:ipni.org:names:77126666-1\",\"fqId\":\"urn:lsid:ipni.org:names:77126666-1\"},{\"accepted\":true,\"author\":\"Engl. & Gilg\",\"kingdom\":\"Plantae\",\"family\":\"Aextoxicaceae\",\"name\":\"Aextoxicaceae\",\"rank\":\"Family\",\"url\":\"/taxon/urn:lsid:ipni.org:names:77126714-1\",\"fqId\":\"urn:lsid:ipni.org:names:77126714-1\",\"images\":[{\"thumbnail\":\"http://d2seqvvyy3b8p2.cloudfront.net/ef4ea1933276a2b733945dba7a731242.jpg\",\"fullsize\":\"http://d2seqvvyy3b8p2.cloudfront.net/821106e294ce6fe619d8f45af1f6914e.jpg\",\"caption\":\"A specimen from Kew's Herbarium\"}]},{\"accepted\":false,\"author\":\"Dumort.\",\"kingdom\":\"Plantae\",\"family\":\"Agavaceae\",\"name\":\"Agavaceae\",\"rank\":\"Family\",\"synonymOf\":{\"accepted\":true,\"author\":\"Juss.\",\"name\":\"Asparagaceae\",\"url\":\"/taxon/urn:lsid:ipni.org:names:30275682-2\",\"fqId\":\"urn:lsid:ipni.org:names:30000166-2\"},\"url\":\"/taxon/urn:lsid:ipni.org:names:30000166-2\",\"fqId\":\"urn:lsid:ipni.org:names:30000166-2\"},{\"accepted\":true,\"author\":\"Martinov\",\"kingdom\":\"Plantae\",\"family\":\"Aizoaceae\",\"name\":\"Aizoaceae\",\"rank\":\"Family\",\"url\":\"/taxon/urn:lsid:ipni.org:names:30004741-2\",\"fqId\":\"urn:lsid:ipni.org:names:30004741-2\",\"images\":[{\"thumbnail\":\"http://storage.googleapis.com/powop-assets/kew_profiles/KPPCONT_047100_thumbnail.jpg\",\"fullsize\":\"http://storage.googleapis.com/powop-assets/kew_profiles/KPPCONT_047100_fullsize.jpg\",\"caption\":\"Trichodiadema densum\"},{\"thumbnail\":\"http://d2seqvvyy3b8p2.cloudfront.net/27d47287c1b962aa762763f079cc02d4.jpg\",\"fullsize\":\"http://d2seqvvyy3b8p2.cloudfront.net/944db492c0079f4adc6670c92da9a843.jpg\",\"caption\":\"Mesembryanthemum cordifolium\"},{\"thumbnail\":\"http://storage.googleapis.com/powop-assets/kew_profiles/KPPCONT_047195_thumbnail.jpg\",\"fullsize\":\"http://storage.googleapis.com/powop-assets/kew_profiles/KPPCONT_047195_fullsize.jpg\",\"caption\":\"Trichodiadema densum (Curtis illustration)\"}]},{\"accepted\":true,\"author\":\"Stapf\",\"kingdom\":\"Plantae\",\"family\":\"Akaniaceae\",\"name\":\"Akaniaceae\",\"rank\":\"Family\",\"url\":\"/taxon/urn:lsid:ipni.org:names:77126629-1\",\"fqId\":\"urn:lsid:ipni.org:names:77126629-1\",\"images\":[{\"thumbnail\":\"http://d2seqvvyy3b8p2.cloudfront.net/33c9e07d60d899b38316eaed98c1b288.jpg\",\"fullsize\":\"http://d2seqvvyy3b8p2.cloudfront.net/163cf1c353e771821b29377408e5a9d5.jpg\",\"caption\":\"A specimen from Kew's Herbarium\"},{\"thumbnail\":\"http://d2seqvvyy3b8p2.cloudfront.net/597d5542cd41923a7be08b6b33066173.jpg\",\"fullsize\":\"http://d2seqvvyy3b8p2.cloudfront.net/ed4e97190eacc8cf329b6ea62efe028f.jpg\",\"caption\":\"A specimen from Kew's Herbarium\"}]},{\"accepted\":false,\"author\":\"DC.\",\"kingdom\":\"Plantae\",\"family\":\"Alangiaceae\",\"name\":\"Alangiaceae\",\"rank\":\"Family\",\"synonymOf\":{\"accepted\":true,\"author\":\"Bercht. & J.Presl\",\"name\":\"Cornaceae\",\"url\":\"/taxon/urn:lsid:ipni.org:names:30002899-2\",\"fqId\":\"urn:lsid:ipni.org:names:50012048-1\"},\"url\":\"/taxon/urn:lsid:ipni.org:names:50012048-1\",\"fqId\":\"urn:lsid:ipni.org:names:50012048-1\"},{\"accepted\":true,\"author\":\"Vent.\",\"kingdom\":\"Plantae\",\"family\":\"Alismataceae\",\"name\":\"Alismataceae\",\"rank\":\"Family\",\"url\":\"/taxon/urn:lsid:ipni.org:names:77126755-1\",\"fqId\":\"urn:lsid:ipni.org:names:77126755-1\",\"images\":[{\"thumbnail\":\"http://storage.googleapis.com/powop-assets/kew_profiles/STAG_001842_thumbnail.jpg\",\"fullsize\":\"http://storage.googleapis.com/powop-assets/kew_profiles/STAG_001842_fullsize.jpg\",\"caption\":\"Luronium natans (floating water-plantain)\"},{\"thumbnail\":\"http://storage.googleapis.com/powop-assets/kew_profiles/Screen%20Shot%202014-04-29%20at%201.01.33%20PM_thumbnail.jpg\",\"fullsize\":\"http://storage.googleapis.com/powop-assets/kew_profiles/Screen%20Shot%202014-04-29%20at%201.01.33%20PM_fullsize.jpg\",\"caption\":\"Alisma plantago-aquatica (common water-plantain)\"},{\"thumbnail\":\"http://storage.googleapis.com/powop-assets/malesiankey/photo/326-026_thumbnail.jpg\",\"fullsize\":\"http://storage.googleapis.com/powop-assets/malesiankey/photo/326-026_fullsize.jpg\",\"caption\":\"Limnocharis flava (Limnocharitaceae)\"}]},{\"accepted\":false,\"author\":\"Borkh.\",\"kingdom\":\"Plantae\",\"family\":\"Alliaceae\",\"name\":\"Alliaceae\",\"rank\":\"Family\",\"synonymOf\":{\"accepted\":true,\"author\":\"J.St.-Hil.\",\"name\":\"Amaryllidaceae\",\"url\":\"/taxon/urn:lsid:ipni.org:names:30000959-2\",\"fqId\":\"urn:lsid:ipni.org:names:30002595-2\"},\"url\":\"/taxon/urn:lsid:ipni.org:names:30002595-2\",\"fqId\":\"urn:lsid:ipni.org:names:30002595-2\"},{\"accepted\":false,\"author\":\"Batsch\",\"kingdom\":\"Plantae\",\"family\":\"Aloaceae\",\"name\":\"Aloaceae\",\"rank\":\"Family\",\"synonymOf\":{\"accepted\":true,\"author\":\"Juss.\",\"name\":\"Asphodelaceae\",\"url\":\"/taxon/urn:lsid:ipni.org:names:60006629-3\",\"fqId\":\"urn:lsid:ipni.org:names:50023895-1\"},\"url\":\"/taxon/urn:lsid:ipni.org:names:50023895-1\",\"fqId\":\"urn:lsid:ipni.org:names:50023895-1\"},{\"accepted\":true,\"author\":\"Airy Shaw\",\"kingdom\":\"Plantae\",\"family\":\"Alseuosmiaceae\",\"name\":\"Alseuosmiaceae\",\"rank\":\"Family\",\"url\":\"/taxon/urn:lsid:ipni.org:names:77126665-1\",\"fqId\":\"urn:lsid:ipni.org:names:77126665-1\",\"images\":[{\"thumbnail\":\"http://d2seqvvyy3b8p2.cloudfront.net/6b0aa823a9701fd3a85151e596d2e883.jpg\",\"fullsize\":\"http://d2seqvvyy3b8p2.cloudfront.net/d09100593346f03db6ef0c5f4f9ff9da.jpg\",\"caption\":\"A specimen from Kew's Herbarium\"},{\"thumbnail\":\"http://d2seqvvyy3b8p2.cloudfront.net/36e3e32778134b9170fb21010524c716.jpg\",\"fullsize\":\"http://d2seqvvyy3b8p2.cloudfront.net/44eced6fb42d78fa633d6f777f951531.jpg\",\"caption\":\"A specimen from Kew's Herbarium\"},{\"thumbnail\":\"http://d2seqvvyy3b8p2.cloudfront.net/b7038b5d484f566ae84f80f0028be3d3.jpg\",\"fullsize\":\"http://d2seqvvyy3b8p2.cloudfront.net/b84b70f6ff7d7fdc4637d4a152cb7089.jpg\",\"caption\":\"A specimen from Kew's Herbarium\"}]},{\"accepted\":true,\"author\":\"Dumort.\",\"kingdom\":\"Plantae\",\"family\":\"Alstroemeriaceae\",\"name\":\"Alstroemeriaceae\",\"rank\":\"Family\",\"url\":\"/taxon/urn:lsid:ipni.org:names:77126742-1\",\"fqId\":\"urn:lsid:ipni.org:names:77126742-1\",\"images\":[{\"thumbnail\":\"http://d2seqvvyy3b8p2.cloudfront.net/1b65b5593f3de9803b8ac9988b4c6461.jpg\",\"fullsize\":\"http://d2seqvvyy3b8p2.cloudfront.net/8d0f6ff1f4dc5f1f32dec207a1fddf23.jpg\",\"caption\":\"Alstroemeria aurea\"},{\"thumbnail\":\"http://d2seqvvyy3b8p2.cloudfront.net/3d4432f160269437f24c99eaf0337693.jpg\",\"fullsize\":\"http://d2seqvvyy3b8p2.cloudfront.net/5a5d028a522bb7f06d040d7a48137605.jpg\",\"caption\":\"Alstroemeria aurea\"},{\"thumbnail\":\"http://d2seqvvyy3b8p2.cloudfront.net/af223b0ff2867d4e900c2cca35e285f8.jpg\",\"fullsize\":\"http://d2seqvvyy3b8p2.cloudfront.net/cd4c70b6a180fff04d425405b365ab71.jpg\",\"caption\":\"Bomarea edulis\"}]},{\"accepted\":true,\"author\":\"Horan.\",\"kingdom\":\"Plantae\",\"family\":\"Altingiaceae\",\"name\":\"Altingiaceae\",\"rank\":\"Family\",\"url\":\"/taxon/urn:lsid:ipni.org:names:60463114-2\",\"fqId\":\"urn:lsid:ipni.org:names:60463114-2\",\"images\":[{\"thumbnail\":\"http://d2seqvvyy3b8p2.cloudfront.net/90142acd085eec81704783ec2d3ff0be.jpg\",\"fullsize\":\"http://d2seqvvyy3b8p2.cloudfront.net/a8344b3bb8ccfad7d87186d3c062076c.jpg\",\"caption\":\"Liquidambar orientalis\"},{\"thumbnail\":\"http://d2seqvvyy3b8p2.cloudfront.net/286a607e7183baf833c5151536c0bec4.jpg\",\"fullsize\":\"http://d2seqvvyy3b8p2.cloudfront.net/b05a1802a5296b538a88b72004fd1bc0.jpg\",\"caption\":\"Liquidambar styraciflua\"},{\"thumbnail\":\"http://d2seqvvyy3b8p2.cloudfront.net/0aa1912830d8f5ce80a0f5f6e3f40910.jpg\",\"fullsize\":\"http://d2seqvvyy3b8p2.cloudfront.net/0b5f5cabe23cdb60c882c952d1b4ffc3.jpg\",\"caption\":\"Liquidambar acalycina\"}]},{\"accepted\":true,\"author\":\"S.A.Graham\",\"kingdom\":\"Plantae\",\"family\":\"Alzateaceae\",\"name\":\"Alzateaceae\",\"rank\":\"Family\",\"url\":\"/taxon/urn:lsid:ipni.org:names:892852-1\",\"fqId\":\"urn:lsid:ipni.org:names:892852-1\",\"images\":[{\"thumbnail\":\"http://storage.googleapis.com/powop-assets/neotropikey/alzatea_verticillata099775u_thumbnail.jpg\",\"fullsize\":\"http://storage.googleapis.com/powop-assets/neotropikey/alzatea_verticillata099775u_fullsize.jpg\",\"caption\":\"Alzatea verticillata (Alzateaceae)\"},{\"thumbnail\":\"http://storage.googleapis.com/powop-assets/neotropikey/alzatea_verticillataU099774u_thumbnail.jpg\",\"fullsize\":\"http://storage.googleapis.com/powop-assets/neotropikey/alzatea_verticillataU099774u_fullsize.jpg\",\"caption\":\"Alzatea verticillata (Alzateaceae)\"}]},{\"accepted\":true,\"author\":\"Juss.\",\"kingdom\":\"Plantae\",\"family\":\"Amaranthaceae\",\"name\":\"Amaranthaceae\",\"rank\":\"Family\",\"url\":\"/taxon/urn:lsid:ipni.org:names:30000566-2\",\"fqId\":\"urn:lsid:ipni.org:names:30000566-2\",\"images\":[{\"thumbnail\":\"https://storage.googleapis.com/powop-assets/PPA/batch3/h1556a_thumbnail.jpg\",\"fullsize\":\"https://storage.googleapis.com/powop-assets/PPA/batch3/h1556a_fullsize.jpg\",\"caption\":\"Amaranthaceae\"},{\"thumbnail\":\"https://storage.googleapis.com/powop-assets/PPA/batch3/h1556b_thumbnail.jpg\",\"fullsize\":\"https://storage.googleapis.com/powop-assets/PPA/batch3/h1556b_fullsize.jpg\",\"caption\":\"Amaranthaceae\"},{\"thumbnail\":\"https://storage.googleapis.com/powop-assets/PPA/batch3/h1556c_thumbnail.jpg\",\"fullsize\":\"https://storage.googleapis.com/powop-assets/PPA/batch3/h1556c_fullsize.jpg\",\"caption\":\"Amaranthaceae\"}]},{\"accepted\":true,\"author\":\"J.St.-Hil.\",\"kingdom\":\"Plantae\",\"family\":\"Amaryllidaceae\",\"name\":\"Amaryllidaceae\",\"rank\":\"Family\",\"url\":\"/taxon/urn:lsid:ipni.org:names:30000959-2\",\"fqId\":\"urn:lsid:ipni.org:names:30000959-2\",\"images\":[{\"thumbnail\":\"http://storage.googleapis.com/powop-assets/kew_profiles/Leucojum_vernum_200305a_licensedunderCCbySA3pt0_crop_thumbnail.jpg\",\"fullsize\":\"http://storage.googleapis.com/powop-assets/kew_profiles/Leucojum_vernum_200305a_licensedunderCCbySA3pt0_crop_fullsize.jpg\",\"caption\":\"Leucojum vernum (spring snowflake)\"},{\"thumbnail\":\"http://storage.googleapis.com/powop-assets/kew_profiles/PPCONT_013019_thumbnail.jpg\",\"fullsize\":\"http://storage.googleapis.com/powop-assets/kew_profiles/PPCONT_013019_fullsize.jpg\",\"caption\":\"Narcissus pseudonarcissus (daffodil)\"},{\"thumbnail\":\"http://storage.googleapis.com/powop-assets/kew_profiles/KPPCONT_037448_thumbnail.jpg\",\"fullsize\":\"http://storage.googleapis.com/powop-assets/kew_profiles/KPPCONT_037448_fullsize.jpg\",\"caption\":\"Nerine humilis (nerine)\"}]},{\"accepted\":true,\"author\":\"Pichon\",\"kingdom\":\"Plantae\",\"family\":\"Amborellaceae\",\"name\":\"Amborellaceae\",\"rank\":\"Family\",\"url\":\"/taxon/urn:lsid:ipni.org:names:77126703-1\",\"fqId\":\"urn:lsid:ipni.org:names:77126703-1\",\"images\":[{\"thumbnail\":\"http://d2seqvvyy3b8p2.cloudfront.net/b6112c5197239eef3365c027b7d9a1e4.jpg\",\"fullsize\":\"http://d2seqvvyy3b8p2.cloudfront.net/1ab685dd190b4cb73207fc6badd8a14f.jpg\",\"caption\":\"A specimen from Kew's Herbarium\"}]},{\"accepted\":false,\"kingdom\":\"Plantae\",\"family\":\"Ampelidaceae\",\"name\":\"Ampelidaceae\",\"rank\":\"Family\",\"synonymOf\":{\"accepted\":true,\"author\":\"Juss.\",\"name\":\"Vitaceae\",\"url\":\"/taxon/urn:lsid:ipni.org:names:30000067-2\",\"fqId\":\"urn:lsid:ipni.org:names:50001738-1\"},\"url\":\"/taxon/urn:lsid:ipni.org:names:50001738-1\",\"fqId\":\"urn:lsid:ipni.org:names:50001738-1\"}]}"}},"recorded_at":"2021-03-04 11:08:30 GMT","recorded_with":"vcr/0.6.0, webmockr/0.7.4"}]}
