IPNI • kewr
…
However, IPNI caps the limit at a maximum of 1000 records. Also, we often don’t know how many records a search will return, or whether it will return a large number of records.

In those cases, we can ask IPNI for the next page of results.

query <- "Poa"
page1 <- search_ipni(query)
#> No encoding supplied: defaulting to UTF-8.
page2 <- request_next(page1)
#> No encoding supplied: defaulting to UTF-8.

bind_rows(
  tidy(page1),
  tidy(page2)
)
#> # A tibble: 100 × 55
#>    abbreviation  date   fqId   id    recordType suppressed title tl2Author url  
#>    <chr>         <chr>  <chr>  <chr> <chr>      <lgl>      <chr> <chr>     <chr>
#>  1 Poa France B… 15 Ja… urn:l… 2000… publicati… FALSE      Poa … Portal, … /p/2…
#>  2 <NA>          <NA>   urn:l… 3851… citation   FALSE      <NA>  <NA>      /n/3…
#>  3 <NA>          <NA>   urn:l… 3931… citation   FALSE      <NA>  <NA>      /n/3…
#>  4 <NA>          <NA>   urn:l… 3933… citation   FALSE      <NA>  <NA>      /n/3…
#>  5 <NA>          <NA>   urn:l… 4014… citation   FALSE      <NA>  <NA>      /n/4…
#>  6 <NA>          <NA>   urn:l… 4032… citation   FALSE      <NA>  <NA>      /n/4…
#>  7 <NA>          <NA>   urn:l… 4032… citation   FALSE      <NA>  <NA>      /n/4…
#>  8 <NA>          <NA>   urn:l… 4092… citation   FALSE      <NA>  <NA>      /n/4…
#>  9 <NA>          <NA>   urn:l… 3000… citation   FALSE      <NA>  <NA>      /n/3…
#> 10 <NA>          <NA>   urn:l… 8481… citation   FALSE      <NA>  <NA>      /n/8…
#> # … with 90 more rows, and 46 more variables: version <chr>, hasBhlLinks <lgl>,
#> #   hasBhlTitleLink <lgl>, hasBhlPageLink <lgl>, name <chr>, authors <chr>,
#> #   publishingAuthor <chr>, authorTeam <list>, originalRemarks <chr>,
#> #   rank <chr>, family <chr>, genus <chr>, species <chr>, citationType <chr>,
#> #   hybrid <lgl>, hybridGenus <lgl>, inPowo <lgl>, linkedPublication <list>,
#> #   publication <chr>, publicationYear <int>, referenceCollation <chr>,
#> #   publicationId <chr>, reference <chr>, topCopy <lgl>, …
…
