POWO • kewr
…
However, for searches with a large number of results, this may not be practical. In this case, or if you just don’t know how many results to expect, you can request the next page of results.

ulex_page1 <- search_powo("Ulex")
ulex_page2 <- request_next(ulex_page1)

bind_rows(
  tidy(ulex_page1),
  tidy(ulex_page2)
)
#> # A tibble: 100 × 11
#>    accepted author   kingdom family  name   rank  snippet   url    fqId   images
#>    <lgl>    <chr>    <chr>   <chr>   <chr>  <chr> <chr>     <chr>  <chr>  <list>
#>  1 TRUE     L.       Plantae Fabace… Ulex   Genus " <b>Gen… /taxo… urn:l… <tibb…
#>  2 TRUE     Desf.    Plantae Caryop… Arena… Spec… " <b>Spe… /taxo… urn:l… <NULL>
#>  3 FALSE    Webb     Plantae Fabace… Ulex … Spec…  <NA>     /taxo… urn:l… <NULL>
#>  4 FALSE    Esp.San… Plantae Fabace… Ulex … Spec…  <NA>     /taxo… urn:l… <NULL>
#>  5 FALSE    Link ex… Plantae Fabace… Ulex … Spec…  <NA>     /taxo… urn:l… <NULL>
#>  6 TRUE     Welw. e… Plantae Fabace… Ulex … Spec…  <NA>     /taxo… urn:l… <tibb…
#>  7 FALSE    Mabille  Plantae Fabace… Ulex … Spec…  <NA>     /taxo… urn:l… <NULL>
#>  8 TRUE     Clemente Plantae Fabace… Ulex … Spec…  <NA>     /taxo… urn:l… <NULL>
#>  9 FALSE    Thore    Plantae Fabace… Ulex … Spec…  <NA>     /taxo… urn:l… <NULL>
#> 10 FALSE    Willk. … Plantae Fabace… Ulex … Spec…  <NA>     /taxo… urn:l… <NULL>
#> # … with 90 more rows, and 1 more variable: synonymOf <list>
…
