ToL • kewr
…
And we can tidy our results into a dataframe:

tidied <- tidy(myrts_all)
tidied
#> # A tibble: 171 × 20
#>      age collector     collector_no country  fasta_file_url     gene_stats genus
#>    <int> <chr>         <chr>        <list>   <chr>              <list>     <lis>
#>  1  1996 Chase, M.W.   10349        <NULL>   http://sftp.kew.o… <tibble [… <tib…
#>  2  1981 Hensold, N.;… 20845        <tibble… http://sftp.kew.o… <tibble [… <tib…
#>  3  1985 Rodd, A.N.; … 4984         <NULL>   http://sftp.kew.o… <tibble [… <tib…
#>  4  2017 Maurin, O.    4360         <NULL>   http://sftp.kew.o… <tibble [… <tib…
#>  5  2008 J.U.          404          <NULL>   http://sftp.kew.o… <tibble [… <tib…
#>  6  1985 Clark, M.     52           <NULL>   http://sftp.kew.o… <tibble [… <tib…
#>  7  2011 Smith, R.J.,… 294          <NULL>   http://sftp.kew.o… <tibble [… <tib…
#>  8    NA Landrum, L.R. 12251        <NULL>   http://sftp.kew.o… <tibble [… <tib…
#>  9    NA <NA>          <NA>         <NULL>   http://sftp.kew.o… <tibble [… <tib…
#> 10  2005 Johnstone, R. 1544         <NULL>   http://sftp.kew.o… <tibble [… <tib…
#> # … with 161 more rows, and 13 more variables: herbcat_url <chr>, id <int>,
#> #   is_suspicious_placement <lgl>, material_source <list>,
#> #   museum_barcode <chr>, project <list>, raw_reads <list>, sequence_id <int>,
#> #   species <list>, specimen_reference <chr>, specimen_source <chr>,
#> #   taxonomy <list>, voucher_no <chr>

Some information is nested inside the tidied dataframe, but we can get to it by unnesting:

tidied %>%
  select(id, raw_reads, taxonomy) %>%
  unnest(col=c(taxonomy, raw_reads), names_sep="_")
#> # A tibble: 171 × 10
#>       id raw_reads_data_access_id raw_reads_data_… raw_reads_id raw_reads_reads…
#>    <int> <chr>                    <chr>                   <int>            <int>
#>  1  2660 ERX4840033               https://www.ebi…         1102          2218140
#>  2  4278 ERX4840494               https://www.ebi…         1760          1363846
#>  3  4221 ERX4840466               https://www.ebi…         1708           911144
#>  4  1610 ERX4890378               https://www.ebi…          567          3707086
#>  5  2692 ERX4840052               https://www.ebi…         1124          2090550
#>  6  4222 ERX4840467               https://www.ebi…         1709          2914784
#>  7  2707 ERX4841120               https://www.ebi…         1136          1819906
#>  8  4591 ERX4841264               https://www.ebi…         1809          1932262
#>  9  2682 ERX4840048               https://www.ebi…         1119          1047180
#> 10  4224 ERX4840468               https://www.ebi…         1710          1044822
#> # … with 161 more rows, and 5 more variables:
#> #   raw_reads_sequence_platform <chr>, taxonomy_family <chr>,
#> #   taxonomy_genus <chr>, taxonomy_order <chr>, taxonomy_species <chr>

Getting gene information

The Tree of Life also contains information about the genes captured during sequencing. These can be accessed using the search_tol function:

genes_all <- search_tol(genes=TRUE, limit=500)
#> No encoding supplied: defaulting to UTF-8.
tidy(genes_all)
#> # A tibble: 353 × 16
#>    alignment_file_url       average_contig_l… average_contig_l… exemplar_access…
#>    <chr>                                <dbl>             <dbl> <chr>           
#>  1 http://sftp.kew.org/pub…              493.              86.3 Q8GWR1          
#>  2 http://sftp.kew.org/pub…              584.              51.7 Q8H1R4          
#>  3 http://sftp.kew.org/pub…              453.              55.2 Q8LEF6          
#>  4 http://sftp.kew.org/pub…              487.              55.1 Q9FZ49          
#>  5 http://sftp.kew.org/pub…              645.              60.8 P04747          
#>  6 http://sftp.kew.org/pub…              790.              68.4 Q9ZUC1          
#>  7 http://sftp.kew.org/pub…              641.              53.6 Q8VY89          
#>  8 http://sftp.kew.org/pub…              969.              65.2 Q9LRZ3          
#>  9 http://sftp.kew.org/pub…              344.              67.4 Q9FIG9          
#> 10 http://sftp.kew.org/pub…              612.              90.4 F4JUL9          
#> # … with 343 more rows, and 12 more variables: exemplar_hyperlink <chr>,
#> #   exemplar_name <chr>, exemplar_species <chr>, fasta_file_url <chr>,
#> #   genera_count <int>, id <int>, internal_name <chr>, newick_file <chr>,
#> #   newick_file_path_name <chr>, sequence_count <int>, species_count <int>,
#> #   tree_file_url <chr>
…
