WCVP • kewr
…
In both cases, we can tidy the results into a tibble to make subsequent analysis easier:

tidy(ulex_all)
#> # A tibble: 93 × 10
#>    id         fqId   url    display accepted family name  author rank  synonymOf
#>    <chr>      <chr>  <chr>  <chr>   <lgl>    <chr>  <chr> <chr>  <chr> <list>   
#>  1 23746-1    urn:l… /taxo… <b><i>… TRUE     Fabac… Ulex  L.     Genus <NULL>   
#>  2 524268-1   urn:l… /taxo… <i>Ule… FALSE    Fabac… Ulex… Webb   Spec… <tibble …
#>  3 993445-1   urn:l… /taxo… <i>Ule… FALSE    Fabac… Ulex… Esp.S… Spec… <tibble …
#>  4 524269-1   urn:l… /taxo… <i>Ule… FALSE    Fabac… Ulex… Link … Spec… <tibble …
#>  5 524270-1   urn:l… /taxo… <b><i>… TRUE     Fabac… Ulex… Welw.… Spec… <NULL>   
#>  6 77196491-1 urn:l… /taxo… <b><i>… TRUE     Fabac… Ulex… NA     Subs… <NULL>   
#>  7 524271-1   urn:l… /taxo… <i>Ule… FALSE    Fabac… Ulex… Mabil… Spec… <tibble …
#>  8 524273-1   urn:l… /taxo… <b><i>… TRUE     Fabac… Ulex… Cleme… Spec… <NULL>   
#>  9 77208445-1 urn:l… /taxo… <b><i>… TRUE     Fabac… Ulex… NA     Subs… <NULL>   
#> 10 993446-1   urn:l… /taxo… <b><i>… TRUE     Fabac… Ulex… (Plan… Subs… <NULL>   
#> # … with 83 more rows

bind_rows(
  tidy(ulex_page1),
  tidy(ulex_page2)
)
#> # A tibble: 93 × 10
#>    id         fqId   url    display accepted family name  author rank  synonymOf
#>    <chr>      <chr>  <chr>  <chr>   <lgl>    <chr>  <chr> <chr>  <chr> <list>   
#>  1 23746-1    urn:l… /taxo… <b><i>… TRUE     Fabac… Ulex  L.     Genus <NULL>   
#>  2 524268-1   urn:l… /taxo… <i>Ule… FALSE    Fabac… Ulex… Webb   Spec… <tibble …
#>  3 993445-1   urn:l… /taxo… <i>Ule… FALSE    Fabac… Ulex… Esp.S… Spec… <tibble …
#>  4 524269-1   urn:l… /taxo… <i>Ule… FALSE    Fabac… Ulex… Link … Spec… <tibble …
#>  5 524270-1   urn:l… /taxo… <b><i>… TRUE     Fabac… Ulex… Welw.… Spec… <NULL>   
#>  6 77196491-1 urn:l… /taxo… <b><i>… TRUE     Fabac… Ulex… NA     Subs… <NULL>   
#>  7 524271-1   urn:l… /taxo… <i>Ule… FALSE    Fabac… Ulex… Mabil… Spec… <tibble …
#>  8 524273-1   urn:l… /taxo… <b><i>… TRUE     Fabac… Ulex… Cleme… Spec… <NULL>   
#>  9 77208445-1 urn:l… /taxo… <b><i>… TRUE     Fabac… Ulex… NA     Subs… <NULL>   
#> 10 993446-1   urn:l… /taxo… <b><i>… TRUE     Fabac… Ulex… (Plan… Subs… <NULL>   
#> # … with 83 more rows
…
